<?xml version="1.0" encoding="UTF-8" standalone="no"?>
<!-- Created with Inkscape (http://www.inkscape.org/) -->

<svg
   xmlns:i="http://ns.adobe.com/AdobeIllustrator/10.0/"
   xmlns:dc="http://purl.org/dc/elements/1.1/"
   xmlns:cc="http://creativecommons.org/ns#"
   xmlns:rdf="http://www.w3.org/1999/02/22-rdf-syntax-ns#"
   xmlns:svg="http://www.w3.org/2000/svg"
   xmlns="http://www.w3.org/2000/svg"
   xmlns:xlink="http://www.w3.org/1999/xlink"
   xmlns:sodipodi="http://sodipodi.sourceforge.net/DTD/sodipodi-0.dtd"
   xmlns:inkscape="http://www.inkscape.org/namespaces/inkscape"
   width="1000"
   height="500"
   id="svg2"
   version="1.1"
   inkscape:version="0.92.1 r15371"
   sodipodi:docname="banner-debconf-curitiba-2018.svg"
   inkscape:export-filename="/home/phls/phls/eventos/minidebconf/2018/banner-midias-sociais/diversos/banner-debconf-curitiba-2018.png"
   inkscape:export-xdpi="96.054657"
   inkscape:export-ydpi="96.054657">
  <defs
     id="defs4">
    <linearGradient
       id="linearGradient9793">
      <stop
         style="stop-color:#ec0000;stop-opacity:1;"
         offset="0"
         id="stop9795" />
      <stop
         style="stop-color:#be0000;stop-opacity:1;"
         offset="1"
         id="stop9797" />
    </linearGradient>
    <linearGradient
       id="linearGradient4791">
      <stop
         style="stop-color:#ffc269;stop-opacity:1;"
         offset="0"
         id="stop4793" />
      <stop
         style="stop-color:#ff9b0c;stop-opacity:1;"
         offset="1"
         id="stop4795" />
    </linearGradient>
    <linearGradient
       id="linearGradient4577">
      <stop
         id="stop4579"
         offset="0"
         style="stop-color:#d64c16;stop-opacity:1;" />
      <stop
         id="stop4581"
         offset="1"
         style="stop-color:#edc545;stop-opacity:1;" />
    </linearGradient>
    <linearGradient
       id="linearGradient4571">
      <stop
         id="stop4573"
         offset="0"
         style="stop-color:#e8bb6c;stop-opacity:1;" />
      <stop
         id="stop4575"
         offset="1"
         style="stop-color:#ec8d13;stop-opacity:1;" />
    </linearGradient>
    <linearGradient
       id="linearGradient3821">
      <stop
         style="stop-color:#2fbd84;stop-opacity:1;"
         offset="0"
         id="stop3823" />
      <stop
         style="stop-color:#268ad9;stop-opacity:1;"
         offset="1"
         id="stop3825" />
    </linearGradient>
    <linearGradient
       id="linearGradient3813">
      <stop
         style="stop-color:#6cc5e8;stop-opacity:1;"
         offset="0"
         id="stop3815" />
      <stop
         style="stop-color:#3ae0bf;stop-opacity:1;"
         offset="1"
         id="stop3817" />
    </linearGradient>
    <linearGradient
       id="linearGradient3813-2">
      <stop
         style="stop-color:#6cc5e8;stop-opacity:1;"
         offset="0"
         id="stop3815-7" />
      <stop
         style="stop-color:#3ae0bf;stop-opacity:1;"
         offset="1"
         id="stop3817-7" />
    </linearGradient>
    <linearGradient
       inkscape:collect="always"
       xlink:href="#linearGradient3821-2"
       id="linearGradient3841-6"
       gradientUnits="userSpaceOnUse"
       x1="118.17747"
       y1="405.98508"
       x2="121.76379"
       y2="502.95972" />
    <linearGradient
       id="linearGradient3821-2">
      <stop
         style="stop-color:#2fbd84;stop-opacity:1;"
         offset="0"
         id="stop3823-7" />
      <stop
         style="stop-color:#268ad9;stop-opacity:1;"
         offset="1"
         id="stop3825-9" />
    </linearGradient>
    <linearGradient
       id="linearGradient3813-2-9">
      <stop
         style="stop-color:#6cc5e8;stop-opacity:1;"
         offset="0"
         id="stop3815-7-2" />
      <stop
         style="stop-color:#3ae0bf;stop-opacity:1;"
         offset="1"
         id="stop3817-7-6" />
    </linearGradient>
    <linearGradient
       y2="502.95972"
       x2="121.76379"
       y1="405.98508"
       x1="118.17747"
       gradientUnits="userSpaceOnUse"
       id="linearGradient3864-4"
       xlink:href="#linearGradient3821-2-2"
       inkscape:collect="always" />
    <linearGradient
       id="linearGradient3821-2-2">
      <stop
         style="stop-color:#2fbd84;stop-opacity:1;"
         offset="0"
         id="stop3823-7-8" />
      <stop
         style="stop-color:#268ad9;stop-opacity:1;"
         offset="1"
         id="stop3825-9-0" />
    </linearGradient>
    <linearGradient
       id="linearGradient3813-2-9-1">
      <stop
         style="stop-color:#6cc5e8;stop-opacity:1;"
         offset="0"
         id="stop3815-7-2-0" />
      <stop
         style="stop-color:#3ae0bf;stop-opacity:1;"
         offset="1"
         id="stop3817-7-6-9" />
    </linearGradient>
    <linearGradient
       y2="502.95972"
       x2="121.76379"
       y1="405.98508"
       x1="118.17747"
       gradientUnits="userSpaceOnUse"
       id="linearGradient3916-5"
       xlink:href="#linearGradient3821-2-2-2"
       inkscape:collect="always" />
    <linearGradient
       id="linearGradient3821-2-2-2">
      <stop
         style="stop-color:#2fbd84;stop-opacity:1;"
         offset="0"
         id="stop3823-7-8-8" />
      <stop
         style="stop-color:#268ad9;stop-opacity:1;"
         offset="1"
         id="stop3825-9-0-0" />
    </linearGradient>
    <linearGradient
       id="linearGradient3813-2-9-1-0">
      <stop
         style="stop-color:#6cc5e8;stop-opacity:1;"
         offset="0"
         id="stop3815-7-2-0-3" />
      <stop
         style="stop-color:#3ae0bf;stop-opacity:1;"
         offset="1"
         id="stop3817-7-6-9-7" />
    </linearGradient>
    <linearGradient
       y2="502.95972"
       x2="121.76379"
       y1="405.98508"
       x1="118.17747"
       gradientUnits="userSpaceOnUse"
       id="linearGradient3968-7"
       xlink:href="#linearGradient3821-2-2-2-2"
       inkscape:collect="always" />
    <linearGradient
       id="linearGradient3821-2-2-2-2">
      <stop
         style="stop-color:#2fbd84;stop-opacity:1;"
         offset="0"
         id="stop3823-7-8-8-8" />
      <stop
         style="stop-color:#268ad9;stop-opacity:1;"
         offset="1"
         id="stop3825-9-0-0-6" />
    </linearGradient>
    <linearGradient
       id="linearGradient3813-2-9-1-0-8">
      <stop
         style="stop-color:#6cc5e8;stop-opacity:1;"
         offset="0"
         id="stop3815-7-2-0-3-2" />
      <stop
         style="stop-color:#3ae0bf;stop-opacity:1;"
         offset="1"
         id="stop3817-7-6-9-7-6" />
    </linearGradient>
    <linearGradient
       y2="502.95972"
       x2="121.76379"
       y1="405.98508"
       x1="118.17747"
       gradientUnits="userSpaceOnUse"
       id="linearGradient4020-9"
       xlink:href="#linearGradient3821-2-2-2-2-4"
       inkscape:collect="always" />
    <linearGradient
       id="linearGradient3821-2-2-2-2-4">
      <stop
         style="stop-color:#2fbd84;stop-opacity:1;"
         offset="0"
         id="stop3823-7-8-8-8-8" />
      <stop
         style="stop-color:#268ad9;stop-opacity:1;"
         offset="1"
         id="stop3825-9-0-0-6-1" />
    </linearGradient>
    <linearGradient
       id="linearGradient3813-2-9-1-0-8-5">
      <stop
         style="stop-color:#6cc5e8;stop-opacity:1;"
         offset="0"
         id="stop3815-7-2-0-3-2-8" />
      <stop
         style="stop-color:#3ae0bf;stop-opacity:1;"
         offset="1"
         id="stop3817-7-6-9-7-6-5" />
    </linearGradient>
    <linearGradient
       y2="502.95972"
       x2="121.76379"
       y1="405.98508"
       x1="118.17747"
       gradientUnits="userSpaceOnUse"
       id="linearGradient4072-3"
       xlink:href="#linearGradient3821-2-2-2-2-4-0"
       inkscape:collect="always" />
    <linearGradient
       id="linearGradient3821-2-2-2-2-4-0">
      <stop
         style="stop-color:#2fbd84;stop-opacity:1;"
         offset="0"
         id="stop3823-7-8-8-8-8-3" />
      <stop
         style="stop-color:#268ad9;stop-opacity:1;"
         offset="1"
         id="stop3825-9-0-0-6-1-6" />
    </linearGradient>
    <linearGradient
       id="linearGradient3813-2-9-1-0-8-5-5">
      <stop
         style="stop-color:#6cc5e8;stop-opacity:1;"
         offset="0"
         id="stop3815-7-2-0-3-2-8-6" />
      <stop
         style="stop-color:#3ae0bf;stop-opacity:1;"
         offset="1"
         id="stop3817-7-6-9-7-6-5-5" />
    </linearGradient>
    <linearGradient
       y2="502.95972"
       x2="121.76379"
       y1="405.98508"
       x1="118.17747"
       gradientUnits="userSpaceOnUse"
       id="linearGradient4124-4"
       xlink:href="#linearGradient3821-2-2-2-2-4-0-5"
       inkscape:collect="always" />
    <linearGradient
       id="linearGradient3821-2-2-2-2-4-0-5">
      <stop
         style="stop-color:#2fbd84;stop-opacity:1;"
         offset="0"
         id="stop3823-7-8-8-8-8-3-5" />
      <stop
         style="stop-color:#268ad9;stop-opacity:1;"
         offset="1"
         id="stop3825-9-0-0-6-1-6-6" />
    </linearGradient>
    <linearGradient
       id="linearGradient3813-2-9-1-0-8-5-5-8">
      <stop
         style="stop-color:#6cc5e8;stop-opacity:1;"
         offset="0"
         id="stop3815-7-2-0-3-2-8-6-8" />
      <stop
         style="stop-color:#3ae0bf;stop-opacity:1;"
         offset="1"
         id="stop3817-7-6-9-7-6-5-5-2" />
    </linearGradient>
    <linearGradient
       y2="502.95972"
       x2="121.76379"
       y1="405.98508"
       x1="118.17747"
       gradientUnits="userSpaceOnUse"
       id="linearGradient4176-9"
       xlink:href="#linearGradient3821-2-2-2-2-4-0-5-9"
       inkscape:collect="always" />
    <linearGradient
       id="linearGradient3821-2-2-2-2-4-0-5-9">
      <stop
         style="stop-color:#2fbd84;stop-opacity:1;"
         offset="0"
         id="stop3823-7-8-8-8-8-3-5-3" />
      <stop
         style="stop-color:#268ad9;stop-opacity:1;"
         offset="1"
         id="stop3825-9-0-0-6-1-6-6-3" />
    </linearGradient>
    <linearGradient
       id="linearGradient3813-2-9-1-0-8-5-5-8-3">
      <stop
         style="stop-color:#6cc5e8;stop-opacity:1;"
         offset="0"
         id="stop3815-7-2-0-3-2-8-6-8-4" />
      <stop
         style="stop-color:#3ae0bf;stop-opacity:1;"
         offset="1"
         id="stop3817-7-6-9-7-6-5-5-2-5" />
    </linearGradient>
    <linearGradient
       y2="502.95972"
       x2="121.76379"
       y1="405.98508"
       x1="118.17747"
       gradientUnits="userSpaceOnUse"
       id="linearGradient4228-8"
       xlink:href="#linearGradient3821-2-2-2-2-4-0-5-9-3"
       inkscape:collect="always" />
    <linearGradient
       id="linearGradient3821-2-2-2-2-4-0-5-9-3">
      <stop
         style="stop-color:#2fbd84;stop-opacity:1;"
         offset="0"
         id="stop3823-7-8-8-8-8-3-5-3-4" />
      <stop
         style="stop-color:#268ad9;stop-opacity:1;"
         offset="1"
         id="stop3825-9-0-0-6-1-6-6-3-6" />
    </linearGradient>
    <linearGradient
       id="linearGradient3813-2-9-1-0-8-5-5-8-3-1">
      <stop
         style="stop-color:#6cc5e8;stop-opacity:1;"
         offset="0"
         id="stop3815-7-2-0-3-2-8-6-8-4-7" />
      <stop
         style="stop-color:#3ae0bf;stop-opacity:1;"
         offset="1"
         id="stop3817-7-6-9-7-6-5-5-2-5-3" />
    </linearGradient>
    <linearGradient
       y2="502.95972"
       x2="121.76379"
       y1="405.98508"
       x1="118.17747"
       gradientUnits="userSpaceOnUse"
       id="linearGradient4280-8"
       xlink:href="#linearGradient3821-2-2-2-2-4-0-5-9-3-6"
       inkscape:collect="always" />
    <linearGradient
       id="linearGradient3821-2-2-2-2-4-0-5-9-3-6">
      <stop
         style="stop-color:#2fbd84;stop-opacity:1;"
         offset="0"
         id="stop3823-7-8-8-8-8-3-5-3-4-6" />
      <stop
         style="stop-color:#268ad9;stop-opacity:1;"
         offset="1"
         id="stop3825-9-0-0-6-1-6-6-3-6-0" />
    </linearGradient>
    <linearGradient
       id="linearGradient3813-2-9-1-0-8-5-5-8-3-1-8">
      <stop
         style="stop-color:#6cc5e8;stop-opacity:1;"
         offset="0"
         id="stop3815-7-2-0-3-2-8-6-8-4-7-0" />
      <stop
         style="stop-color:#3ae0bf;stop-opacity:1;"
         offset="1"
         id="stop3817-7-6-9-7-6-5-5-2-5-3-4" />
    </linearGradient>
    <linearGradient
       y2="502.95972"
       x2="121.76379"
       y1="405.98508"
       x1="118.17747"
       gradientUnits="userSpaceOnUse"
       id="linearGradient4332-3"
       xlink:href="#linearGradient3821-2-2-2-2-4-0-5-9-3-6-3"
       inkscape:collect="always" />
    <linearGradient
       id="linearGradient3821-2-2-2-2-4-0-5-9-3-6-3">
      <stop
         style="stop-color:#2fbd84;stop-opacity:1;"
         offset="0"
         id="stop3823-7-8-8-8-8-3-5-3-4-6-9" />
      <stop
         style="stop-color:#268ad9;stop-opacity:1;"
         offset="1"
         id="stop3825-9-0-0-6-1-6-6-3-6-0-1" />
    </linearGradient>
    <linearGradient
       id="linearGradient3813-2-9-1-0-8-5-5-8-3-1-8-2">
      <stop
         style="stop-color:#6cc5e8;stop-opacity:1;"
         offset="0"
         id="stop3815-7-2-0-3-2-8-6-8-4-7-0-2" />
      <stop
         style="stop-color:#3ae0bf;stop-opacity:1;"
         offset="1"
         id="stop3817-7-6-9-7-6-5-5-2-5-3-4-4" />
    </linearGradient>
    <linearGradient
       y2="502.95972"
       x2="121.76379"
       y1="405.98508"
       x1="118.17747"
       gradientUnits="userSpaceOnUse"
       id="linearGradient4384-7"
       xlink:href="#linearGradient3821-2-2-2-2-4-0-5-9-3-6-3-0"
       inkscape:collect="always" />
    <linearGradient
       id="linearGradient3821-2-2-2-2-4-0-5-9-3-6-3-0">
      <stop
         style="stop-color:#2fbd84;stop-opacity:1;"
         offset="0"
         id="stop3823-7-8-8-8-8-3-5-3-4-6-9-6" />
      <stop
         style="stop-color:#268ad9;stop-opacity:1;"
         offset="1"
         id="stop3825-9-0-0-6-1-6-6-3-6-0-1-2" />
    </linearGradient>
    <linearGradient
       id="linearGradient3813-2-9-1-0-8-5-5-8-3-1-8-2-0">
      <stop
         style="stop-color:#6cc5e8;stop-opacity:1;"
         offset="0"
         id="stop3815-7-2-0-3-2-8-6-8-4-7-0-2-4" />
      <stop
         style="stop-color:#3ae0bf;stop-opacity:1;"
         offset="1"
         id="stop3817-7-6-9-7-6-5-5-2-5-3-4-4-9" />
    </linearGradient>
    <linearGradient
       y2="502.95972"
       x2="121.76379"
       y1="405.98508"
       x1="118.17747"
       gradientUnits="userSpaceOnUse"
       id="linearGradient4436-8"
       xlink:href="#linearGradient3821-2-2-2-2-4-0-5-9-3-6-3-0-6"
       inkscape:collect="always" />
    <linearGradient
       id="linearGradient3821-2-2-2-2-4-0-5-9-3-6-3-0-6">
      <stop
         style="stop-color:#2fbd84;stop-opacity:1;"
         offset="0"
         id="stop3823-7-8-8-8-8-3-5-3-4-6-9-6-6" />
      <stop
         style="stop-color:#268ad9;stop-opacity:1;"
         offset="1"
         id="stop3825-9-0-0-6-1-6-6-3-6-0-1-2-4" />
    </linearGradient>
    <linearGradient
       id="linearGradient3813-2-9-1-0-8-5-5-8-3-1-8-2-0-5">
      <stop
         style="stop-color:#6cc5e8;stop-opacity:1;"
         offset="0"
         id="stop3815-7-2-0-3-2-8-6-8-4-7-0-2-4-7" />
      <stop
         style="stop-color:#3ae0bf;stop-opacity:1;"
         offset="1"
         id="stop3817-7-6-9-7-6-5-5-2-5-3-4-4-9-3" />
    </linearGradient>
    <linearGradient
       y2="502.95972"
       x2="121.76379"
       y1="405.98508"
       x1="118.17747"
       gradientUnits="userSpaceOnUse"
       id="linearGradient4488-6"
       xlink:href="#linearGradient3821-2-2-2-2-4-0-5-9-3-6-3-0-6-8"
       inkscape:collect="always" />
    <linearGradient
       id="linearGradient3821-2-2-2-2-4-0-5-9-3-6-3-0-6-8">
      <stop
         style="stop-color:#2fbd84;stop-opacity:1;"
         offset="0"
         id="stop3823-7-8-8-8-8-3-5-3-4-6-9-6-6-9" />
      <stop
         style="stop-color:#268ad9;stop-opacity:1;"
         offset="1"
         id="stop3825-9-0-0-6-1-6-6-3-6-0-1-2-4-4" />
    </linearGradient>
    <linearGradient
       id="linearGradient4571-8">
      <stop
         id="stop4573-3"
         offset="0"
         style="stop-color:#e8bb6c;stop-opacity:1;" />
      <stop
         id="stop4575-8"
         offset="1"
         style="stop-color:#ec8d13;stop-opacity:1;" />
    </linearGradient>
    <linearGradient
       y2="502.95972"
       x2="121.76379"
       y1="405.98508"
       x1="118.17747"
       gradientUnits="userSpaceOnUse"
       id="linearGradient4540-4"
       xlink:href="#linearGradient4577-6"
       inkscape:collect="always" />
    <linearGradient
       id="linearGradient4577-6">
      <stop
         id="stop4579-2"
         offset="0"
         style="stop-color:#d64c16;stop-opacity:1;" />
      <stop
         id="stop4581-1"
         offset="1"
         style="stop-color:#edc545;stop-opacity:1;" />
    </linearGradient>
    <linearGradient
       id="linearGradient4571-8-5">
      <stop
         id="stop4573-3-3"
         offset="0"
         style="stop-color:#e8bb6c;stop-opacity:1;" />
      <stop
         id="stop4575-8-7"
         offset="1"
         style="stop-color:#ec8d13;stop-opacity:1;" />
    </linearGradient>
    <linearGradient
       y2="502.95972"
       x2="121.76379"
       y1="405.98508"
       x1="118.17747"
       gradientUnits="userSpaceOnUse"
       id="linearGradient4604-4"
       xlink:href="#linearGradient4577-6-1"
       inkscape:collect="always" />
    <linearGradient
       id="linearGradient4577-6-1">
      <stop
         id="stop4579-2-6"
         offset="0"
         style="stop-color:#d64c16;stop-opacity:1;" />
      <stop
         id="stop4581-1-0"
         offset="1"
         style="stop-color:#edc545;stop-opacity:1;" />
    </linearGradient>
    <linearGradient
       id="linearGradient4571-8-5-3">
      <stop
         id="stop4573-3-3-8"
         offset="0"
         style="stop-color:#e8bb6c;stop-opacity:1;" />
      <stop
         id="stop4575-8-7-2"
         offset="1"
         style="stop-color:#ec8d13;stop-opacity:1;" />
    </linearGradient>
    <linearGradient
       y2="502.95972"
       x2="121.76379"
       y1="405.98508"
       x1="118.17747"
       gradientUnits="userSpaceOnUse"
       id="linearGradient4656-6"
       xlink:href="#linearGradient4577-6-1-7"
       inkscape:collect="always" />
    <linearGradient
       id="linearGradient4577-6-1-7">
      <stop
         id="stop4579-2-6-2"
         offset="0"
         style="stop-color:#d64c16;stop-opacity:1;" />
      <stop
         id="stop4581-1-0-7"
         offset="1"
         style="stop-color:#edc545;stop-opacity:1;" />
    </linearGradient>
    <linearGradient
       id="linearGradient4571-8-5-3-9">
      <stop
         id="stop4573-3-3-8-0"
         offset="0"
         style="stop-color:#e8bb6c;stop-opacity:1;" />
      <stop
         id="stop4575-8-7-2-3"
         offset="1"
         style="stop-color:#ec8d13;stop-opacity:1;" />
    </linearGradient>
    <linearGradient
       y2="502.95972"
       x2="121.76379"
       y1="405.98508"
       x1="118.17747"
       gradientUnits="userSpaceOnUse"
       id="linearGradient4708-0"
       xlink:href="#linearGradient4577-6-1-7-7"
       inkscape:collect="always" />
    <linearGradient
       id="linearGradient4577-6-1-7-7">
      <stop
         id="stop4579-2-6-2-9"
         offset="0"
         style="stop-color:#d64c16;stop-opacity:1;" />
      <stop
         id="stop4581-1-0-7-4"
         offset="1"
         style="stop-color:#edc545;stop-opacity:1;" />
    </linearGradient>
    <inkscape:perspective
       sodipodi:type="inkscape:persp3d"
       inkscape:vp_x="0 : 561.25983 : 1"
       inkscape:vp_y="0 : 1066.6667 : 0"
       inkscape:vp_z="793.70078 : 561.25983 : 1"
       inkscape:persp3d-origin="396.85039 : 374.17322 : 1"
       id="perspective3778" />
    <inkscape:perspective
       sodipodi:type="inkscape:persp3d"
       inkscape:vp_x="0 : 561.25983 : 1"
       inkscape:vp_y="0 : 1066.6667 : 0"
       inkscape:vp_z="793.70078 : 561.25983 : 1"
       inkscape:persp3d-origin="396.85039 : 374.17322 : 1"
       id="perspective3592" />
    <linearGradient
       gradientTransform="matrix(0.980949,0,0,1,-8.2448712,0)"
       gradientUnits="userSpaceOnUse"
       y2="110.37658"
       x2="-103.84446"
       y1="110.37658"
       x1="-1187.361"
       id="linearGradient4730"
       xlink:href="#linearGradient4724"
       inkscape:collect="always" />
    <inkscape:perspective
       sodipodi:type="inkscape:persp3d"
       inkscape:vp_x="0 : 561.25983 : 1"
       inkscape:vp_y="0 : 1066.6667 : 0"
       inkscape:vp_z="793.70078 : 561.25983 : 1"
       inkscape:persp3d-origin="396.85039 : 374.17322 : 1"
       id="perspective3934" />
    <linearGradient
       y2="641.93866"
       x2="1701.3469"
       y1="486.11423"
       x1="1024.7861"
       gradientUnits="userSpaceOnUse"
       id="linearGradient7621"
       xlink:href="#linearGradient6767"
       inkscape:collect="always" />
    <linearGradient
       y2="641.93866"
       x2="1701.3469"
       y1="486.11423"
       x1="1024.7861"
       gradientUnits="userSpaceOnUse"
       id="linearGradient7619"
       xlink:href="#linearGradient6767"
       inkscape:collect="always" />
    <linearGradient
       y2="484.79367"
       x2="1737.0017"
       y1="484.79367"
       x1="1357.5638"
       gradientUnits="userSpaceOnUse"
       id="linearGradient7585"
       xlink:href="#linearGradient6767"
       inkscape:collect="always" />
    <linearGradient
       y2="484.79367"
       x2="1737.0017"
       y1="484.79367"
       x1="1357.5638"
       gradientUnits="userSpaceOnUse"
       id="linearGradient7583"
       xlink:href="#linearGradient6767"
       inkscape:collect="always" />
    <linearGradient
       gradientUnits="userSpaceOnUse"
       y2="484.79367"
       x2="1737.0017"
       y1="484.79367"
       x1="1357.5638"
       id="linearGradient7577"
       xlink:href="#linearGradient6767"
       inkscape:collect="always" />
    <linearGradient
       gradientUnits="userSpaceOnUse"
       y2="484.79367"
       x2="1737.0017"
       y1="484.79367"
       x1="1357.5638"
       id="linearGradient7569"
       xlink:href="#linearGradient6767"
       inkscape:collect="always" />
    <linearGradient
       y2="155.12579"
       x2="262.44714"
       y1="130.12579"
       x1="262.44714"
       gradientTransform="matrix(1.1650406,0,0,1.1650406,854.91668,373.64793)"
       gradientUnits="userSpaceOnUse"
       id="linearGradient7333"
       xlink:href="#linearGradient7885"
       inkscape:collect="always" />
    <linearGradient
       gradientTransform="matrix(1.1650406,0,0,1.1650406,852.5866,371.31785)"
       gradientUnits="userSpaceOnUse"
       y2="155.12579"
       x2="262.44714"
       y1="130.12579"
       x1="262.44714"
       id="linearGradient7327"
       xlink:href="#linearGradient7885"
       inkscape:collect="always" />
    <inkscape:perspective
       sodipodi:type="inkscape:persp3d"
       inkscape:vp_x="0 : 561.25983 : 1"
       inkscape:vp_y="0 : 1066.6667 : 0"
       inkscape:vp_z="793.70078 : 561.25983 : 1"
       inkscape:persp3d-origin="396.85039 : 374.17322 : 1"
       id="perspective6690" />
    <linearGradient
       id="linearGradient6697">
      <stop
         style="stop-color:#000000;stop-opacity:1;"
         offset="0"
         id="stop6699" />
      <stop
         style="stop-color:#000000;stop-opacity:0;"
         offset="1"
         id="stop6701" />
    </linearGradient>
    <linearGradient
       id="linearGradient6703">
      <stop
         style="stop-color:#f79200;stop-opacity:1;"
         offset="0"
         id="stop6705" />
      <stop
         style="stop-color:#ffffff;stop-opacity:0;"
         offset="1"
         id="stop6707" />
    </linearGradient>
    <linearGradient
       id="linearGradient6709">
      <stop
         style="stop-color:#0000d5;stop-opacity:1;"
         offset="0"
         id="stop6711" />
      <stop
         id="stop6713"
         offset="0.5"
         style="stop-color:#ffffff;stop-opacity:0.49803922;" />
      <stop
         style="stop-color:#00b0ea;stop-opacity:0;"
         offset="1"
         id="stop6715" />
    </linearGradient>
    <linearGradient
       id="linearGradient6717">
      <stop
         style="stop-color:#fa6e00;stop-opacity:1;"
         offset="0"
         id="stop6719" />
      <stop
         id="stop6721"
         offset="0.5"
         style="stop-color:#eff200;stop-opacity:0.49803922;" />
      <stop
         style="stop-color:#e5b300;stop-opacity:0;"
         offset="1"
         id="stop6723" />
    </linearGradient>
    <linearGradient
       id="linearGradient6725">
      <stop
         style="stop-color:#000000;stop-opacity:1;"
         offset="0"
         id="stop6727" />
      <stop
         style="stop-color:#000000;stop-opacity:0;"
         offset="1"
         id="stop6729" />
    </linearGradient>
    <linearGradient
       id="linearGradient6731">
      <stop
         offset="0"
         id="stop6733"
         style="stop-color:#fac732;stop-opacity:1;" />
      <stop
         offset="1"
         id="stop6735"
         style="stop-color:#ff8d2d;stop-opacity:1;" />
    </linearGradient>
    <linearGradient
       id="linearGradient6737">
      <stop
         offset="0"
         id="stop6739"
         style="stop-color:#000000;stop-opacity:0;" />
      <stop
         offset="1"
         id="stop6741"
         style="stop-color:#000000;stop-opacity:1;" />
    </linearGradient>
    <linearGradient
       inkscape:collect="always"
       id="linearGradient6743"
       x1="201.06781"
       y1="-160.52704"
       gradientTransform="matrix(0.8941887,0,0,0.8941887,-27.290417,342.37297)"
       x2="205.96875"
       gradientUnits="userSpaceOnUse"
       xlink:href="#linearGradient10592"
       y2="-113.55305" />
    <linearGradient
       id="linearGradient6745">
      <stop
         offset="0"
         id="stop6747"
         style="stop-color:#dbb600;stop-opacity:1;" />
      <stop
         offset="0.5"
         id="stop6749"
         style="stop-color:#ffffff;stop-opacity:0.49803922;" />
      <stop
         offset="1"
         id="stop6751"
         style="stop-color:#eafd00;stop-opacity:0;" />
    </linearGradient>
    <linearGradient
       inkscape:collect="always"
       id="linearGradient6753"
       x1="85.883392"
       y1="-111.72987"
       gradientTransform="translate(68.032186,354.64996)"
       x2="84.469963"
       gradientUnits="userSpaceOnUse"
       xlink:href="#linearGradient14205"
       y2="-155.81845" />
    <linearGradient
       id="linearGradient6755">
      <stop
         offset="0"
         id="stop6757"
         style="stop-color:#545a3a;stop-opacity:0;" />
      <stop
         offset="1"
         id="stop6759"
         style="stop-color:#e56d00;stop-opacity:1;" />
    </linearGradient>
    <linearGradient
       id="linearGradient6761">
      <stop
         offset="0"
         id="stop6763"
         style="stop-color:#ffffff;stop-opacity:0.30980393;" />
      <stop
         offset="1"
         id="stop6765"
         style="stop-color:#646464;stop-opacity:1;" />
    </linearGradient>
    <linearGradient
       id="linearGradient6767">
      <stop
         offset="0"
         id="stop6769"
         style="stop-color:#ae4d5a;stop-opacity:1;" />
      <stop
         offset="1"
         id="stop6771"
         style="stop-color:#ff8d2d;stop-opacity:1;" />
    </linearGradient>
    <radialGradient
       inkscape:collect="always"
       xlink:href="#linearGradient931"
       id="radialGradient6789"
       gradientUnits="userSpaceOnUse"
       gradientTransform="matrix(-0.1366996,0.01901277,0.01942751,0.1396815,-1704.1959,951.56413)"
       cx="-13397.574"
       cy="-313.87469"
       fx="-13397.574"
       fy="-313.87469"
       r="432.04001" />
    <radialGradient
       inkscape:collect="always"
       xlink:href="#linearGradient931"
       id="radialGradient6803"
       gradientUnits="userSpaceOnUse"
       gradientTransform="matrix(-0.1366996,0.01901277,0.01942751,0.1396815,-1676.0601,1324.2)"
       cx="-13397.574"
       cy="-313.87469"
       fx="-13397.574"
       fy="-313.87469"
       r="432.04001" />
    <radialGradient
       inkscape:collect="always"
       xlink:href="#linearGradient931"
       id="radialGradient6805"
       gradientUnits="userSpaceOnUse"
       gradientTransform="matrix(-0.1366996,0.01901277,0.01942751,0.1396815,-1704.1959,951.56413)"
       cx="-13397.574"
       cy="-313.87469"
       fx="-13397.574"
       fy="-313.87469"
       r="432.04001" />
    <radialGradient
       inkscape:collect="always"
       xlink:href="#linearGradient931"
       id="radialGradient6807"
       gradientUnits="userSpaceOnUse"
       gradientTransform="matrix(-0.1366996,0.01901277,0.01942751,0.1396815,-1676.0601,1324.2)"
       cx="-13397.574"
       cy="-313.87469"
       fx="-13397.574"
       fy="-313.87469"
       r="432.04001" />
    <radialGradient
       inkscape:collect="always"
       xlink:href="#linearGradient936"
       id="radialGradient6813"
       gradientUnits="userSpaceOnUse"
       gradientTransform="matrix(0.4849966,3.5197131e-8,-3.5197101e-8,0.4849961,-253.04239,17.096818)"
       cx="-491.34122"
       cy="33.197422"
       fx="-491.34122"
       fy="33.197422"
       r="23.131397" />
    <linearGradient
       inkscape:collect="always"
       xlink:href="#linearGradient14205"
       id="linearGradient6815"
       gradientUnits="userSpaceOnUse"
       gradientTransform="matrix(2.7980077,0,0,2.7980077,-588.18374,1599.3307)"
       x1="85.883392"
       y1="-111.72987"
       x2="83.731705"
       y2="-150.4079" />
    <radialGradient
       inkscape:collect="always"
       xlink:href="#linearGradient10592"
       id="radialGradient6817"
       gradientUnits="userSpaceOnUse"
       gradientTransform="matrix(0.6843881,-0.1406003,0.07828579,0.381065,-344.14127,892.29009)"
       cx="-96.268875"
       cy="899.93719"
       fx="-96.268875"
       fy="899.93719"
       r="184.35255" />
    <radialGradient
       inkscape:collect="always"
       xlink:href="#linearGradient931"
       id="radialGradient6819"
       gradientUnits="userSpaceOnUse"
       gradientTransform="matrix(-0.1366996,0.01901277,0.01942751,0.1396815,-1704.1959,951.56413)"
       cx="-13397.574"
       cy="-313.87469"
       fx="-13397.574"
       fy="-313.87469"
       r="432.04001" />
    <radialGradient
       inkscape:collect="always"
       xlink:href="#linearGradient931"
       id="radialGradient6821"
       gradientUnits="userSpaceOnUse"
       gradientTransform="matrix(-0.1366996,0.01901277,0.01942751,0.1396815,-1704.1959,951.56413)"
       cx="-13397.574"
       cy="-313.87469"
       fx="-13397.574"
       fy="-313.87469"
       r="432.04001" />
    <linearGradient
       inkscape:collect="always"
       xlink:href="#linearGradient14205"
       id="linearGradient6847"
       x1="-516.11713"
       y1="340.44913"
       x2="-516.11713"
       y2="318.65079"
       gradientUnits="userSpaceOnUse" />
    <linearGradient
       inkscape:collect="always"
       xlink:href="#linearGradient14205"
       id="linearGradient6849"
       x1="-414.61755"
       y1="340.44913"
       x2="-416.83484"
       y2="318.65079"
       gradientUnits="userSpaceOnUse" />
    <linearGradient
       inkscape:collect="always"
       xlink:href="#linearGradient14205"
       id="linearGradient6851"
       x1="-519.45538"
       y1="340.44913"
       x2="-519.44348"
       y2="317.57477"
       gradientUnits="userSpaceOnUse" />
    <radialGradient
       inkscape:collect="always"
       xlink:href="#linearGradient936"
       id="radialGradient6853"
       gradientUnits="userSpaceOnUse"
       gradientTransform="matrix(0.4849966,3.5197131e-8,-3.5197101e-8,0.4849961,-253.04239,17.096818)"
       cx="-491.34122"
       cy="33.197422"
       fx="-491.34122"
       fy="33.197422"
       r="23.131397" />
    <linearGradient
       inkscape:collect="always"
       xlink:href="#linearGradient14205"
       id="linearGradient6855"
       gradientUnits="userSpaceOnUse"
       gradientTransform="matrix(2.7980077,0,0,2.7980077,-792.12813,590.46077)"
       x1="85.883392"
       y1="-111.72987"
       x2="83.731705"
       y2="-150.4079" />
    <radialGradient
       inkscape:collect="always"
       xlink:href="#linearGradient10592"
       id="radialGradient6857"
       gradientUnits="userSpaceOnUse"
       gradientTransform="matrix(0.6843881,-0.1406003,0.07828579,0.381065,-548.08566,-116.57989)"
       cx="-96.268875"
       cy="899.93719"
       fx="-96.268875"
       fy="899.93719"
       r="184.35255" />
    <radialGradient
       inkscape:collect="always"
       xlink:href="#linearGradient931"
       id="radialGradient6859"
       gradientUnits="userSpaceOnUse"
       gradientTransform="matrix(-0.1366996,0.01901277,0.01942751,0.1396815,-1704.1959,951.56413)"
       cx="-13397.574"
       cy="-313.87469"
       fx="-13397.574"
       fy="-313.87469"
       r="432.04001" />
    <linearGradient
       inkscape:collect="always"
       xlink:href="#linearGradient7885"
       id="linearGradient6939"
       x1="-1779.2878"
       y1="1408.7145"
       x2="-1786.5933"
       y2="1499.1549"
       gradientUnits="userSpaceOnUse" />
    <linearGradient
       inkscape:collect="always"
       xlink:href="#linearGradient7885"
       id="linearGradient6942"
       gradientUnits="userSpaceOnUse"
       x1="-2690.6206"
       y1="1408.7145"
       x2="-2709.0588"
       y2="1499.1549" />
    <linearGradient
       inkscape:collect="always"
       xlink:href="#linearGradient7885"
       id="linearGradient6945"
       gradientUnits="userSpaceOnUse"
       x1="-2545.0908"
       y1="1408.7145"
       x2="-2545.0908"
       y2="1499.1549" />
    <radialGradient
       inkscape:collect="always"
       xlink:href="#linearGradient936"
       id="radialGradient6956"
       gradientUnits="userSpaceOnUse"
       gradientTransform="matrix(0.4849966,3.5197131e-8,-3.5197101e-8,0.4849961,-253.04239,17.096818)"
       cx="-491.34122"
       cy="33.197422"
       fx="-491.34122"
       fy="33.197422"
       r="23.131397" />
    <linearGradient
       inkscape:collect="always"
       xlink:href="#linearGradient14205"
       id="linearGradient6958"
       gradientUnits="userSpaceOnUse"
       gradientTransform="matrix(2.7980077,0,0,2.7980077,-792.12813,590.46077)"
       x1="85.883392"
       y1="-111.72987"
       x2="83.731705"
       y2="-150.4079" />
    <radialGradient
       inkscape:collect="always"
       xlink:href="#linearGradient10592"
       id="radialGradient6960"
       gradientUnits="userSpaceOnUse"
       gradientTransform="matrix(0.6843881,-0.1406003,0.07828579,0.381065,-548.08566,-116.57989)"
       cx="-96.268875"
       cy="899.93719"
       fx="-96.268875"
       fy="899.93719"
       r="184.35255" />
    <radialGradient
       inkscape:collect="always"
       xlink:href="#linearGradient931"
       id="radialGradient6962"
       gradientUnits="userSpaceOnUse"
       gradientTransform="matrix(-0.1366996,0.01901277,0.01942751,0.1396815,-1704.1959,951.56413)"
       cx="-13397.574"
       cy="-313.87469"
       fx="-13397.574"
       fy="-313.87469"
       r="432.04001" />
    <linearGradient
       inkscape:collect="always"
       xlink:href="#linearGradient1018"
       id="linearGradient6984"
       gradientUnits="userSpaceOnUse"
       gradientTransform="scale(0.9857524,1.0144536)"
       x1="392.56433"
       y1="154.80325"
       x2="721.79407"
       y2="154.80325" />
    <linearGradient
       inkscape:collect="always"
       xlink:href="#linearGradient1018"
       id="linearGradient6986"
       gradientUnits="userSpaceOnUse"
       gradientTransform="scale(0.9857524,1.0144536)"
       x1="392.56433"
       y1="154.80325"
       x2="721.79407"
       y2="154.80325" />
    <linearGradient
       inkscape:collect="always"
       xlink:href="#linearGradient1018"
       id="linearGradient6988"
       gradientUnits="userSpaceOnUse"
       gradientTransform="scale(0.9857524,1.0144536)"
       x1="392.56433"
       y1="154.80325"
       x2="721.79407"
       y2="154.80325" />
    <linearGradient
       inkscape:collect="always"
       xlink:href="#linearGradient950"
       id="linearGradient6990"
       gradientUnits="userSpaceOnUse"
       gradientTransform="scale(0.9857524,1.0144536)"
       x1="392.56433"
       y1="154.80325"
       x2="721.79407"
       y2="154.80325" />
    <linearGradient
       inkscape:collect="always"
       xlink:href="#linearGradient1018"
       id="linearGradient6996"
       gradientUnits="userSpaceOnUse"
       gradientTransform="scale(0.9857524,1.0144536)"
       x1="392.56433"
       y1="154.80325"
       x2="721.79407"
       y2="154.80325" />
    <linearGradient
       inkscape:collect="always"
       xlink:href="#linearGradient1018"
       id="linearGradient6998"
       gradientUnits="userSpaceOnUse"
       gradientTransform="scale(0.9857524,1.0144536)"
       x1="392.56433"
       y1="154.80325"
       x2="721.79407"
       y2="154.80325" />
    <linearGradient
       inkscape:collect="always"
       xlink:href="#linearGradient1018"
       id="linearGradient7000"
       gradientUnits="userSpaceOnUse"
       gradientTransform="scale(0.9857524,1.0144536)"
       x1="392.56433"
       y1="154.80325"
       x2="721.79407"
       y2="154.80325" />
    <linearGradient
       inkscape:collect="always"
       xlink:href="#linearGradient950"
       id="linearGradient7002"
       gradientUnits="userSpaceOnUse"
       gradientTransform="scale(0.9857524,1.0144536)"
       x1="392.56433"
       y1="154.80325"
       x2="721.79407"
       y2="154.80325" />
    <radialGradient
       inkscape:collect="always"
       xlink:href="#linearGradient936"
       id="radialGradient7004"
       gradientUnits="userSpaceOnUse"
       gradientTransform="matrix(0.4849966,3.5197131e-8,-3.5197101e-8,0.4849961,-253.04239,17.096818)"
       cx="-491.34122"
       cy="33.197422"
       fx="-491.34122"
       fy="33.197422"
       r="23.131397" />
    <linearGradient
       inkscape:collect="always"
       xlink:href="#linearGradient14205"
       id="linearGradient7006"
       gradientUnits="userSpaceOnUse"
       gradientTransform="matrix(2.7980077,0,0,2.7980077,-792.12813,590.46077)"
       x1="85.883392"
       y1="-111.72987"
       x2="83.731705"
       y2="-150.4079" />
    <radialGradient
       inkscape:collect="always"
       xlink:href="#linearGradient10592"
       id="radialGradient7008"
       gradientUnits="userSpaceOnUse"
       gradientTransform="matrix(0.6843881,-0.1406003,0.07828579,0.381065,-548.08566,-116.57989)"
       cx="-96.268875"
       cy="899.93719"
       fx="-96.268875"
       fy="899.93719"
       r="184.35255" />
    <radialGradient
       inkscape:collect="always"
       xlink:href="#linearGradient931"
       id="radialGradient7010"
       gradientUnits="userSpaceOnUse"
       gradientTransform="matrix(-0.1366996,0.01901277,0.01942751,0.1396815,-1704.1959,951.56413)"
       cx="-13397.574"
       cy="-313.87469"
       fx="-13397.574"
       fy="-313.87469"
       r="432.04001" />
    <linearGradient
       inkscape:collect="always"
       xlink:href="#linearGradient1018"
       id="linearGradient7012"
       gradientUnits="userSpaceOnUse"
       gradientTransform="scale(0.9857524,1.0144536)"
       x1="392.56433"
       y1="154.80325"
       x2="721.79407"
       y2="154.80325" />
    <linearGradient
       inkscape:collect="always"
       xlink:href="#linearGradient1018"
       id="linearGradient7014"
       gradientUnits="userSpaceOnUse"
       gradientTransform="scale(0.9857524,1.0144536)"
       x1="392.56433"
       y1="154.80325"
       x2="721.79407"
       y2="154.80325" />
    <linearGradient
       inkscape:collect="always"
       xlink:href="#linearGradient1018"
       id="linearGradient7016"
       gradientUnits="userSpaceOnUse"
       gradientTransform="scale(0.9857524,1.0144536)"
       x1="392.56433"
       y1="154.80325"
       x2="721.79407"
       y2="154.80325" />
    <linearGradient
       inkscape:collect="always"
       xlink:href="#linearGradient950"
       id="linearGradient7018"
       gradientUnits="userSpaceOnUse"
       gradientTransform="scale(0.9857524,1.0144536)"
       x1="392.56433"
       y1="154.80325"
       x2="721.79407"
       y2="154.80325" />
    <radialGradient
       inkscape:collect="always"
       xlink:href="#linearGradient936"
       id="radialGradient7020"
       gradientUnits="userSpaceOnUse"
       gradientTransform="matrix(0.4849966,3.5197131e-8,-3.5197101e-8,0.4849961,-253.04239,17.096818)"
       cx="-491.34122"
       cy="33.197422"
       fx="-491.34122"
       fy="33.197422"
       r="23.131397" />
    <linearGradient
       inkscape:collect="always"
       xlink:href="#linearGradient14205"
       id="linearGradient7022"
       gradientUnits="userSpaceOnUse"
       gradientTransform="matrix(2.7980077,0,0,2.7980077,-792.12813,590.46077)"
       x1="85.883392"
       y1="-111.72987"
       x2="83.731705"
       y2="-150.4079" />
    <radialGradient
       inkscape:collect="always"
       xlink:href="#linearGradient10592"
       id="radialGradient7024"
       gradientUnits="userSpaceOnUse"
       gradientTransform="matrix(0.6843881,-0.1406003,0.07828579,0.381065,-548.08566,-116.57989)"
       cx="-96.268875"
       cy="899.93719"
       fx="-96.268875"
       fy="899.93719"
       r="184.35255" />
    <radialGradient
       inkscape:collect="always"
       xlink:href="#linearGradient931"
       id="radialGradient7026"
       gradientUnits="userSpaceOnUse"
       gradientTransform="matrix(-0.1366996,0.01901277,0.01942751,0.1396815,-1704.1959,951.56413)"
       cx="-13397.574"
       cy="-313.87469"
       fx="-13397.574"
       fy="-313.87469"
       r="432.04001" />
    <linearGradient
       gradientTransform="translate(-169.44145,-53.292069)"
       gradientUnits="userSpaceOnUse"
       y2="411.66376"
       x2="531.53876"
       y1="377.39639"
       x1="531.53876"
       id="linearGradient5371"
       xlink:href="#linearGradient931"
       inkscape:collect="always" />
    <linearGradient
       gradientTransform="translate(-169.44145,-53.292069)"
       gradientUnits="userSpaceOnUse"
       y2="411.66376"
       x2="531.53876"
       y1="377.39639"
       x1="531.53876"
       id="linearGradient5363"
       xlink:href="#linearGradient931"
       inkscape:collect="always" />
    <linearGradient
       gradientTransform="translate(2.7329266,-142.11218)"
       gradientUnits="userSpaceOnUse"
       y2="426.75159"
       x2="314.66345"
       y1="389.0119"
       x1="315.06409"
       id="linearGradient5355"
       xlink:href="#linearGradient931"
       inkscape:collect="always" />
    <linearGradient
       gradientTransform="translate(2.7329266,-142.11218)"
       gradientUnits="userSpaceOnUse"
       y2="426.75159"
       x2="314.66345"
       y1="389.0119"
       x1="315.06409"
       id="linearGradient5347"
       xlink:href="#linearGradient931"
       inkscape:collect="always" />
    <linearGradient
       gradientTransform="matrix(1.0666043,0,0,1.0666043,-27.943568,-118.59416)"
       gradientUnits="userSpaceOnUse"
       y2="373.50626"
       x2="345.5217"
       y1="346.17697"
       x1="345.5217"
       id="linearGradient5339"
       xlink:href="#linearGradient14205"
       inkscape:collect="always" />
    <linearGradient
       gradientTransform="matrix(1.0666043,0,0,1.0666043,-27.943568,-118.59416)"
       gradientUnits="userSpaceOnUse"
       y2="373.50626"
       x2="345.5217"
       y1="346.17697"
       x1="345.5217"
       id="linearGradient5331"
       xlink:href="#linearGradient7885"
       inkscape:collect="always" />
    <inkscape:perspective
       sodipodi:type="inkscape:persp3d"
       inkscape:vp_x="0 : 561.25983 : 1"
       inkscape:vp_y="0 : 1066.6667 : 0"
       inkscape:vp_z="793.70078 : 561.25983 : 1"
       inkscape:persp3d-origin="396.85039 : 374.17322 : 1"
       id="perspective387" />
    <linearGradient
       id="linearGradient3843">
      <stop
         style="stop-color:#000000;stop-opacity:1;"
         offset="0"
         id="stop3845" />
      <stop
         style="stop-color:#000000;stop-opacity:0;"
         offset="1"
         id="stop3847" />
    </linearGradient>
    <linearGradient
       id="linearGradient7885">
      <stop
         style="stop-color:#ffc527;stop-opacity:1;"
         offset="0"
         id="stop7887" />
      <stop
         style="stop-color:#ffffff;stop-opacity:1;"
         offset="1"
         id="stop7889" />
    </linearGradient>
    <linearGradient
       id="linearGradient17268">
      <stop
         style="stop-color:#0000d5;stop-opacity:1;"
         offset="0"
         id="stop17270" />
      <stop
         id="stop17276"
         offset="0.5"
         style="stop-color:#ffffff;stop-opacity:0.49803922;" />
      <stop
         style="stop-color:#00b0ea;stop-opacity:0;"
         offset="1"
         id="stop17272" />
    </linearGradient>
    <linearGradient
       id="linearGradient6560">
      <stop
         style="stop-color:#fa6e00;stop-opacity:1;"
         offset="0"
         id="stop6562" />
      <stop
         id="stop6568"
         offset="0.5"
         style="stop-color:#eff200;stop-opacity:0.49803922;" />
      <stop
         style="stop-color:#e5b300;stop-opacity:0;"
         offset="1"
         id="stop6564" />
    </linearGradient>
    <linearGradient
       id="linearGradient6552">
      <stop
         style="stop-color:#000000;stop-opacity:1;"
         offset="0"
         id="stop6554" />
      <stop
         style="stop-color:#000000;stop-opacity:0;"
         offset="1"
         id="stop6556" />
    </linearGradient>
    <linearGradient
       id="linearGradient931">
      <stop
         offset="0"
         id="stop932"
         style="stop-color:#fac732;stop-opacity:1;" />
      <stop
         offset="1"
         id="stop933"
         style="stop-color:#ff8d2d;stop-opacity:1;" />
    </linearGradient>
    <linearGradient
       id="linearGradient10592">
      <stop
         offset="0"
         id="stop10594"
         style="stop-color:#000000;stop-opacity:0;" />
      <stop
         offset="1"
         id="stop10596"
         style="stop-color:#000000;stop-opacity:1;" />
    </linearGradient>
    <linearGradient
       inkscape:collect="always"
       id="linearGradient5974"
       x1="201.06781"
       y1="-160.52704"
       gradientTransform="matrix(0.8941887,0,0,0.8941887,-27.290417,342.37297)"
       x2="205.96875"
       gradientUnits="userSpaceOnUse"
       xlink:href="#linearGradient10592"
       y2="-113.55305" />
    <linearGradient
       id="linearGradient14205">
      <stop
         offset="0"
         id="stop14207"
         style="stop-color:#dbb600;stop-opacity:1;" />
      <stop
         offset="0.5"
         id="stop14213"
         style="stop-color:#ffffff;stop-opacity:0.49803922;" />
      <stop
         offset="1"
         id="stop14209"
         style="stop-color:#eafd00;stop-opacity:0;" />
    </linearGradient>
    <linearGradient
       inkscape:collect="always"
       id="linearGradient5972"
       x1="85.883392"
       y1="-111.72987"
       gradientTransform="translate(68.032186,354.64996)"
       x2="84.469963"
       gradientUnits="userSpaceOnUse"
       xlink:href="#linearGradient14205"
       y2="-155.81845" />
    <linearGradient
       id="linearGradient950">
      <stop
         offset="0"
         id="stop951"
         style="stop-color:#545a3a;stop-opacity:0;" />
      <stop
         offset="1"
         id="stop952"
         style="stop-color:#e56d00;stop-opacity:1;" />
    </linearGradient>
    <linearGradient
       id="linearGradient1018">
      <stop
         offset="0"
         id="stop1019"
         style="stop-color:#ffffff;stop-opacity:0.30980393;" />
      <stop
         offset="1"
         id="stop1020"
         style="stop-color:#646464;stop-opacity:1;" />
    </linearGradient>
    <linearGradient
       id="linearGradient936">
      <stop
         offset="0"
         id="stop937"
         style="stop-color:#ae4d5a;stop-opacity:1;" />
      <stop
         offset="1"
         id="stop938"
         style="stop-color:#ff8d2d;stop-opacity:1;" />
    </linearGradient>
    <radialGradient
       inkscape:collect="always"
       xlink:href="#linearGradient931"
       id="radialGradient2273"
       gradientUnits="userSpaceOnUse"
       gradientTransform="matrix(-0.1366996,0.01901277,0.01942751,0.1396815,-1704.1959,951.56413)"
       cx="-13397.574"
       cy="-313.87469"
       fx="-13397.574"
       fy="-313.87469"
       r="432.04001" />
    <radialGradient
       inkscape:collect="always"
       xlink:href="#linearGradient931"
       id="radialGradient4297"
       gradientUnits="userSpaceOnUse"
       gradientTransform="matrix(-0.1366996,0.01901277,0.01942751,0.1396815,-1676.0601,1324.2)"
       cx="-13397.574"
       cy="-313.87469"
       fx="-13397.574"
       fy="-313.87469"
       r="432.04001" />
    <radialGradient
       inkscape:collect="always"
       xlink:href="#linearGradient931"
       id="radialGradient4314"
       gradientUnits="userSpaceOnUse"
       gradientTransform="matrix(-0.1366996,0.01901277,0.01942751,0.1396815,-1704.1959,951.56413)"
       cx="-13397.574"
       cy="-313.87469"
       fx="-13397.574"
       fy="-313.87469"
       r="432.04001" />
    <radialGradient
       inkscape:collect="always"
       xlink:href="#linearGradient931"
       id="radialGradient4357"
       gradientUnits="userSpaceOnUse"
       gradientTransform="matrix(-0.1366996,0.01901277,0.01942751,0.1396815,-1676.0601,1324.2)"
       cx="-13397.574"
       cy="-313.87469"
       fx="-13397.574"
       fy="-313.87469"
       r="432.04001" />
    <radialGradient
       inkscape:collect="always"
       xlink:href="#linearGradient936"
       id="radialGradient3484"
       gradientUnits="userSpaceOnUse"
       gradientTransform="matrix(0.4849966,3.5197131e-8,-3.5197101e-8,0.4849961,-253.04239,17.096818)"
       cx="-491.34122"
       cy="33.197422"
       fx="-491.34122"
       fy="33.197422"
       r="23.131397" />
    <linearGradient
       inkscape:collect="always"
       xlink:href="#linearGradient14205"
       id="linearGradient3486"
       gradientUnits="userSpaceOnUse"
       gradientTransform="matrix(2.7980077,0,0,2.7980077,-588.18374,1599.3307)"
       x1="85.883392"
       y1="-111.72987"
       x2="83.731705"
       y2="-150.4079" />
    <radialGradient
       inkscape:collect="always"
       xlink:href="#linearGradient10592"
       id="radialGradient3488"
       gradientUnits="userSpaceOnUse"
       gradientTransform="matrix(0.6843881,-0.1406003,0.07828579,0.381065,-344.14127,892.29009)"
       cx="-96.268875"
       cy="899.93719"
       fx="-96.268875"
       fy="899.93719"
       r="184.35255" />
    <radialGradient
       inkscape:collect="always"
       xlink:href="#linearGradient931"
       id="radialGradient3497"
       gradientUnits="userSpaceOnUse"
       gradientTransform="matrix(-0.1366996,0.01901277,0.01942751,0.1396815,-1704.1959,951.56413)"
       cx="-13397.574"
       cy="-313.87469"
       fx="-13397.574"
       fy="-313.87469"
       r="432.04001" />
    <radialGradient
       inkscape:collect="always"
       xlink:href="#linearGradient931"
       id="radialGradient4475"
       gradientUnits="userSpaceOnUse"
       gradientTransform="matrix(-0.1366996,0.01901277,0.01942751,0.1396815,-1704.1959,951.56413)"
       cx="-13397.574"
       cy="-313.87469"
       fx="-13397.574"
       fy="-313.87469"
       r="432.04001" />
    <linearGradient
       inkscape:collect="always"
       xlink:href="#linearGradient14205"
       id="linearGradient16011"
       x1="-516.11713"
       y1="340.44913"
       x2="-516.11713"
       y2="318.65079"
       gradientUnits="userSpaceOnUse" />
    <linearGradient
       inkscape:collect="always"
       xlink:href="#linearGradient14205"
       id="linearGradient16013"
       x1="-414.61755"
       y1="340.44913"
       x2="-416.83484"
       y2="318.65079"
       gradientUnits="userSpaceOnUse" />
    <linearGradient
       inkscape:collect="always"
       xlink:href="#linearGradient14205"
       id="linearGradient16015"
       x1="-519.45538"
       y1="340.44913"
       x2="-519.44348"
       y2="317.57477"
       gradientUnits="userSpaceOnUse" />
    <radialGradient
       inkscape:collect="always"
       xlink:href="#linearGradient936"
       id="radialGradient4455"
       gradientUnits="userSpaceOnUse"
       gradientTransform="matrix(0.4849966,3.5197131e-8,-3.5197101e-8,0.4849961,-253.04239,17.096818)"
       cx="-491.34122"
       cy="33.197422"
       fx="-491.34122"
       fy="33.197422"
       r="23.131397" />
    <linearGradient
       inkscape:collect="always"
       xlink:href="#linearGradient14205"
       id="linearGradient4457"
       gradientUnits="userSpaceOnUse"
       gradientTransform="matrix(2.7980077,0,0,2.7980077,-792.12813,590.46077)"
       x1="85.883392"
       y1="-111.72987"
       x2="83.731705"
       y2="-150.4079" />
    <radialGradient
       inkscape:collect="always"
       xlink:href="#linearGradient10592"
       id="radialGradient4459"
       gradientUnits="userSpaceOnUse"
       gradientTransform="matrix(0.6843881,-0.1406003,0.07828579,0.381065,-548.08566,-116.57989)"
       cx="-96.268875"
       cy="899.93719"
       fx="-96.268875"
       fy="899.93719"
       r="184.35255" />
    <radialGradient
       inkscape:collect="always"
       xlink:href="#linearGradient931"
       id="radialGradient4461"
       gradientUnits="userSpaceOnUse"
       gradientTransform="matrix(-0.1366996,0.01901277,0.01942751,0.1396815,-1704.1959,951.56413)"
       cx="-13397.574"
       cy="-313.87469"
       fx="-13397.574"
       fy="-313.87469"
       r="432.04001" />
    <linearGradient
       inkscape:collect="always"
       xlink:href="#linearGradient1018"
       id="linearGradient8653"
       gradientUnits="userSpaceOnUse"
       gradientTransform="scale(0.9857524,1.0144536)"
       x1="392.56433"
       y1="154.80325"
       x2="721.79407"
       y2="154.80325" />
    <linearGradient
       inkscape:collect="always"
       xlink:href="#linearGradient1018"
       id="linearGradient8655"
       gradientUnits="userSpaceOnUse"
       gradientTransform="scale(0.9857524,1.0144536)"
       x1="392.56433"
       y1="154.80325"
       x2="721.79407"
       y2="154.80325" />
    <linearGradient
       inkscape:collect="always"
       xlink:href="#linearGradient1018"
       id="linearGradient8657"
       gradientUnits="userSpaceOnUse"
       gradientTransform="scale(0.9857524,1.0144536)"
       x1="392.56433"
       y1="154.80325"
       x2="721.79407"
       y2="154.80325" />
    <linearGradient
       inkscape:collect="always"
       xlink:href="#linearGradient950"
       id="linearGradient8659"
       gradientUnits="userSpaceOnUse"
       gradientTransform="scale(0.9857524,1.0144536)"
       x1="392.56433"
       y1="154.80325"
       x2="721.79407"
       y2="154.80325" />
    <radialGradient
       inkscape:collect="always"
       xlink:href="#linearGradient936"
       id="radialGradient8661"
       gradientUnits="userSpaceOnUse"
       gradientTransform="matrix(0.4849966,3.5197131e-8,-3.5197101e-8,0.4849961,-253.04239,17.096818)"
       cx="-491.34122"
       cy="33.197422"
       fx="-491.34122"
       fy="33.197422"
       r="23.131397" />
    <linearGradient
       inkscape:collect="always"
       xlink:href="#linearGradient14205"
       id="linearGradient8663"
       gradientUnits="userSpaceOnUse"
       gradientTransform="matrix(2.7980077,0,0,2.7980077,-792.12813,590.46077)"
       x1="85.883392"
       y1="-111.72987"
       x2="83.731705"
       y2="-150.4079" />
    <radialGradient
       inkscape:collect="always"
       xlink:href="#linearGradient10592"
       id="radialGradient8665"
       gradientUnits="userSpaceOnUse"
       gradientTransform="matrix(0.6843881,-0.1406003,0.07828579,0.381065,-548.08566,-116.57989)"
       cx="-96.268875"
       cy="899.93719"
       fx="-96.268875"
       fy="899.93719"
       r="184.35255" />
    <radialGradient
       inkscape:collect="always"
       xlink:href="#linearGradient931"
       id="radialGradient8667"
       gradientUnits="userSpaceOnUse"
       gradientTransform="matrix(-0.1366996,0.01901277,0.01942751,0.1396815,-1704.1959,951.56413)"
       cx="-13397.574"
       cy="-313.87469"
       fx="-13397.574"
       fy="-313.87469"
       r="432.04001" />
    <linearGradient
       inkscape:collect="always"
       xlink:href="#linearGradient1018"
       id="linearGradient3839-38"
       gradientUnits="userSpaceOnUse"
       gradientTransform="scale(0.9857524,1.0144536)"
       x1="392.56433"
       y1="154.80325"
       x2="721.79407"
       y2="154.80325" />
    <linearGradient
       inkscape:collect="always"
       xlink:href="#linearGradient1018"
       id="linearGradient3841-4"
       gradientUnits="userSpaceOnUse"
       gradientTransform="scale(0.9857524,1.0144536)"
       x1="392.56433"
       y1="154.80325"
       x2="721.79407"
       y2="154.80325" />
    <linearGradient
       inkscape:collect="always"
       xlink:href="#linearGradient1018"
       id="linearGradient3844"
       gradientUnits="userSpaceOnUse"
       gradientTransform="scale(0.9857524,1.0144536)"
       x1="392.56433"
       y1="154.80325"
       x2="721.79407"
       y2="154.80325" />
    <linearGradient
       inkscape:collect="always"
       xlink:href="#linearGradient950"
       id="linearGradient3846"
       gradientUnits="userSpaceOnUse"
       gradientTransform="scale(0.9857524,1.0144536)"
       x1="392.56433"
       y1="154.80325"
       x2="721.79407"
       y2="154.80325" />
    <radialGradient
       inkscape:collect="always"
       xlink:href="#linearGradient936"
       id="radialGradient3848"
       gradientUnits="userSpaceOnUse"
       gradientTransform="matrix(0.4849966,3.5197131e-8,-3.5197101e-8,0.4849961,-253.04239,17.096818)"
       cx="-491.34122"
       cy="33.197422"
       fx="-491.34122"
       fy="33.197422"
       r="23.131397" />
    <linearGradient
       inkscape:collect="always"
       xlink:href="#linearGradient14205"
       id="linearGradient3850"
       gradientUnits="userSpaceOnUse"
       gradientTransform="matrix(2.7980077,0,0,2.7980077,-792.12813,590.46077)"
       x1="85.883392"
       y1="-111.72987"
       x2="83.731705"
       y2="-150.4079" />
    <radialGradient
       inkscape:collect="always"
       xlink:href="#linearGradient10592"
       id="radialGradient3852"
       gradientUnits="userSpaceOnUse"
       gradientTransform="matrix(0.6843881,-0.1406003,0.07828579,0.381065,-548.08566,-116.57989)"
       cx="-96.268875"
       cy="899.93719"
       fx="-96.268875"
       fy="899.93719"
       r="184.35255" />
    <radialGradient
       inkscape:collect="always"
       xlink:href="#linearGradient931"
       id="radialGradient3854"
       gradientUnits="userSpaceOnUse"
       gradientTransform="matrix(-0.1366996,0.01901277,0.01942751,0.1396815,-1704.1959,951.56413)"
       cx="-13397.574"
       cy="-313.87469"
       fx="-13397.574"
       fy="-313.87469"
       r="432.04001" />
    <inkscape:perspective
       id="perspective9"
       inkscape:persp3d-origin="396.85039 : 374.17322 : 1"
       inkscape:vp_z="793.70078 : 561.25983 : 1"
       inkscape:vp_y="0 : 1066.6667 : 0"
       inkscape:vp_x="0 : 561.25983 : 1"
       sodipodi:type="inkscape:persp3d" />
    <linearGradient
       id="linearGradient4724"
       inkscape:collect="always">
      <stop
         id="stop4726"
         offset="0"
         style="stop-color:#ffffff;stop-opacity:1;" />
      <stop
         id="stop4728"
         offset="1"
         style="stop-color:#ffffff;stop-opacity:0;" />
    </linearGradient>
    <filter
       id="filter4286"
       style="color-interpolation-filters:sRGB">
      <feGaussianBlur
         stdDeviation="1.4684965"
         id="feGaussianBlur4288" />
    </filter>
    <linearGradient
       x1="549.39001"
       y1="511.95001"
       gradientTransform="translate(-296,250)"
       x2="535.46002"
       gradientUnits="userSpaceOnUse"
       y2="497.81"
       id="linearGradient4216">
      <stop
         offset="0"
         stop-color="#fff"
         id="stop4212" />
      <stop
         offset="1"
         stop-opacity="0"
         stop-color="#fff"
         id="stop4214" />
    </linearGradient>
    <filter
       id="filter4162"
       style="color-interpolation-filters:sRGB">
      <feGaussianBlur
         stdDeviation="0.86620579"
         id="feGaussianBlur4164" />
    </filter>
    <linearGradient
       x1="445.48001"
       y1="428.69"
       gradientTransform="translate(-296,250)"
       x2="529.62"
       gradientUnits="userSpaceOnUse"
       y2="428.69"
       id="linearGradient4080">
      <stop
         offset="0"
         stop-color="#0ab2fd"
         id="stop4076" />
      <stop
         offset="1"
         stop-opacity="0"
         stop-color="#0ab2fd"
         id="stop4078" />
    </linearGradient>
    <linearGradient
       x1="395.63"
       y1="479.25"
       gradientTransform="matrix(1.0118,0,0,1,-300.68,250)"
       x2="437.88"
       gradientUnits="userSpaceOnUse"
       xlink:href="#linearGradient3984"
       y2="465.45999"
       id="linearGradient4070" />
    <linearGradient
       x1="364.87"
       y1="638.70001"
       gradientTransform="matrix(1.5431,0,0,1.0797,-557.8,201.57)"
       x2="514.07001"
       gradientUnits="userSpaceOnUse"
       y2="638.70001"
       id="linearGradient4022">
      <stop
         offset="0"
         stop-color="#0ab2fd"
         id="stop4018" />
      <stop
         offset="1"
         stop-opacity="0"
         stop-color="#0ab2fd"
         id="stop4020" />
    </linearGradient>
    <linearGradient
       x1="410.29999"
       y1="633.75"
       gradientTransform="translate(-296,250)"
       x2="426.98999"
       gradientUnits="userSpaceOnUse"
       xlink:href="#linearGradient3984"
       y2="644.71997"
       id="linearGradient3990" />
    <linearGradient
       x1="487.20001"
       y1="708.71002"
       gradientTransform="translate(-296,250)"
       x2="487.20001"
       gradientUnits="userSpaceOnUse"
       y2="651.42999"
       id="linearGradient3944">
      <stop
         offset="0"
         stop-color="#24caf2"
         id="stop3888-2" />
      <stop
         offset="1"
         stop-color="#0ab2fd"
         id="stop3890-7" />
    </linearGradient>
    <linearGradient
       x1="487.75"
       y1="451.91"
       gradientTransform="translate(-296,250)"
       x2="487.75"
       gradientUnits="userSpaceOnUse"
       y2="531.66998"
       id="linearGradient3892">
      <stop
         offset="0"
         stop-color="#24caf2"
         id="stop3888" />
      <stop
         offset="1"
         stop-color="#0ab2fd"
         id="stop3890" />
    </linearGradient>
    <linearGradient
       x1="584.21002"
       y1="517.35999"
       gradientTransform="translate(-296,250)"
       x2="490"
       gradientUnits="userSpaceOnUse"
       y2="555.35999"
       id="linearGradient3882">
      <stop
         offset="0"
         stop-color="#0073ff"
         id="stop3878" />
      <stop
         offset="1"
         stop-opacity="0"
         id="stop3880" />
    </linearGradient>
    <linearGradient
       x1="665.71002"
       y1="555.35999"
       gradientTransform="translate(-296,250)"
       x2="490"
       gradientUnits="userSpaceOnUse"
       y2="555.35999"
       id="linearGradient3874">
      <stop
         offset="0"
         stop-color="#00acff"
         id="stop3870" />
      <stop
         offset="1"
         stop-opacity="0"
         stop-color="#fff"
         id="stop3872" />
    </linearGradient>
    <linearGradient
       x1="145"
       x2="365"
       gradientTransform="matrix(0.87204,0,0,0.83682,-32.08,667.47)"
       y1="362.85999"
       gradientUnits="userSpaceOnUse"
       y2="362.85999"
       id="linearGradient3753">
      <stop
         offset="0"
         id="stop3606-5-2" />
      <stop
         offset=".29773"
         stop-color="#757575"
         id="stop3614-5-1" />
      <stop
         offset=".82273"
         stop-color="#403f3f"
         id="stop3612-2-53" />
      <stop
         offset="1"
         id="stop3608-1-3" />
    </linearGradient>
    <linearGradient
       x1="145"
       y1="362.85999"
       gradientTransform="matrix(1.0108,0,0,0.99961,-69.547,619.89)"
       x2="365"
       gradientUnits="userSpaceOnUse"
       y2="362.85999"
       id="linearGradient3610-80">
      <stop
         offset="0"
         id="stop3606-1" />
      <stop
         offset=".29773"
         stop-color="#757575"
         id="stop3614-0" />
      <stop
         offset=".82273"
         stop-color="#403f3f"
         id="stop3612-36" />
      <stop
         offset="1"
         id="stop3608-7" />
    </linearGradient>
    <linearGradient
       x1="145"
       x2="365"
       gradientTransform="matrix(0.84689,0,0,0.83759,-25.957,321.43)"
       y1="362.85999"
       gradientUnits="userSpaceOnUse"
       y2="362.85999"
       id="linearGradient3635">
      <stop
         offset="0"
         id="stop3606-5" />
      <stop
         offset=".29773"
         stop-color="#757575"
         id="stop3614-5" />
      <stop
         offset=".82273"
         stop-color="#403f3f"
         id="stop3612-2" />
      <stop
         offset="1"
         id="stop3608-1" />
    </linearGradient>
    <linearGradient
       x1="145"
       y1="362.85999"
       gradientTransform="translate(-67,248)"
       x2="365"
       gradientUnits="userSpaceOnUse"
       y2="362.85999"
       id="linearGradient3610">
      <stop
         offset="0"
         id="stop3606" />
      <stop
         offset=".29773"
         stop-color="#757575"
         id="stop3614" />
      <stop
         offset=".82273"
         stop-color="#403f3f"
         id="stop3612" />
      <stop
         offset="1"
         id="stop3608" />
    </linearGradient>
    <linearGradient
       id="linearGradient3984">
      <stop
         offset="0"
         stop-color="#0c73b6"
         id="stop3986" />
      <stop
         offset="1"
         stop-opacity="0"
         stop-color="#0c73b6"
         id="stop3988" />
    </linearGradient>
    <linearGradient
       inkscape:collect="always"
       xlink:href="#linearGradient3874"
       id="linearGradient10161"
       gradientUnits="userSpaceOnUse"
       gradientTransform="translate(-296,250)"
       x1="665.71002"
       y1="555.35999"
       x2="490"
       y2="555.35999" />
    <linearGradient
       inkscape:collect="always"
       xlink:href="#linearGradient3882"
       id="linearGradient10163"
       gradientUnits="userSpaceOnUse"
       gradientTransform="translate(-296,250)"
       x1="584.21002"
       y1="517.35999"
       x2="490"
       y2="555.35999" />
    <linearGradient
       inkscape:collect="always"
       xlink:href="#linearGradient4080"
       id="linearGradient10165"
       gradientUnits="userSpaceOnUse"
       gradientTransform="translate(-296,250)"
       x1="445.48001"
       y1="428.69"
       x2="529.62"
       y2="428.69" />
    <linearGradient
       inkscape:collect="always"
       xlink:href="#linearGradient3635"
       id="linearGradient10167"
       gradientUnits="userSpaceOnUse"
       gradientTransform="matrix(0.84689,0,0,0.83759,-25.957,321.43)"
       x1="145"
       y1="362.85999"
       x2="365"
       y2="362.85999" />
    <linearGradient
       inkscape:collect="always"
       xlink:href="#linearGradient3610"
       id="linearGradient10169"
       gradientUnits="userSpaceOnUse"
       gradientTransform="translate(-67,248)"
       x1="145"
       y1="362.85999"
       x2="365"
       y2="362.85999" />
    <linearGradient
       inkscape:collect="always"
       xlink:href="#linearGradient3944"
       id="linearGradient10171"
       gradientUnits="userSpaceOnUse"
       gradientTransform="translate(-296,250)"
       x1="487.20001"
       y1="708.71002"
       x2="487.20001"
       y2="651.42999" />
    <linearGradient
       inkscape:collect="always"
       xlink:href="#linearGradient3753"
       id="linearGradient10173"
       gradientUnits="userSpaceOnUse"
       gradientTransform="matrix(0.87204,0,0,0.83682,-32.08,667.47)"
       x1="145"
       y1="362.85999"
       x2="365"
       y2="362.85999" />
    <linearGradient
       inkscape:collect="always"
       xlink:href="#linearGradient3610-80"
       id="linearGradient10175"
       gradientUnits="userSpaceOnUse"
       gradientTransform="matrix(1.0108,0,0,0.99961,-69.547,619.89)"
       x1="145"
       y1="362.85999"
       x2="365"
       y2="362.85999" />
    <linearGradient
       inkscape:collect="always"
       xlink:href="#linearGradient3892"
       id="linearGradient10177"
       gradientUnits="userSpaceOnUse"
       gradientTransform="translate(-296,250)"
       x1="487.75"
       y1="451.91"
       x2="487.75"
       y2="531.66998" />
    <linearGradient
       inkscape:collect="always"
       xlink:href="#linearGradient3984"
       id="linearGradient10179"
       gradientUnits="userSpaceOnUse"
       gradientTransform="translate(-296,250)"
       x1="410.29999"
       y1="633.75"
       x2="426.98999"
       y2="644.71997" />
    <linearGradient
       inkscape:collect="always"
       xlink:href="#linearGradient4022"
       id="linearGradient10181"
       gradientUnits="userSpaceOnUse"
       gradientTransform="matrix(1.5431,0,0,1.0797,-557.8,201.57)"
       x1="364.87"
       y1="638.70001"
       x2="514.07001"
       y2="638.70001" />
    <linearGradient
       inkscape:collect="always"
       xlink:href="#linearGradient3984"
       id="linearGradient10183"
       gradientUnits="userSpaceOnUse"
       gradientTransform="matrix(1.0118,0,0,1,-300.68,250)"
       x1="395.63"
       y1="479.25"
       x2="437.88"
       y2="465.45999" />
    <linearGradient
       inkscape:collect="always"
       xlink:href="#linearGradient4216"
       id="linearGradient10185"
       gradientUnits="userSpaceOnUse"
       gradientTransform="translate(-296,250)"
       x1="549.39001"
       y1="511.95001"
       x2="535.46002"
       y2="497.81" />
    <filter
       x="-0.039886001"
       y="-0.12104"
       width="1.0798"
       height="1.2421"
       id="filter4037"
       style="color-interpolation-filters:sRGB">
      <feGaussianBlur
         stdDeviation="11.868751"
         id="feGaussianBlur4039" />
    </filter>
    <linearGradient
       inkscape:collect="always"
       xlink:href="#linearGradient3874"
       id="linearGradient4756"
       gradientUnits="userSpaceOnUse"
       gradientTransform="translate(-296,250)"
       x1="665.71002"
       y1="555.35999"
       x2="490"
       y2="555.35999" />
    <linearGradient
       inkscape:collect="always"
       xlink:href="#linearGradient3882"
       id="linearGradient4758"
       gradientUnits="userSpaceOnUse"
       gradientTransform="translate(-296,250)"
       x1="584.21002"
       y1="517.35999"
       x2="490"
       y2="555.35999" />
    <linearGradient
       inkscape:collect="always"
       xlink:href="#linearGradient4080"
       id="linearGradient4760"
       gradientUnits="userSpaceOnUse"
       gradientTransform="translate(-296,250)"
       x1="445.48001"
       y1="428.69"
       x2="529.62"
       y2="428.69" />
    <linearGradient
       inkscape:collect="always"
       xlink:href="#linearGradient3635"
       id="linearGradient4762"
       gradientUnits="userSpaceOnUse"
       gradientTransform="matrix(0.84689,0,0,0.83759,-25.957,321.43)"
       x1="145"
       y1="362.85999"
       x2="365"
       y2="362.85999" />
    <linearGradient
       inkscape:collect="always"
       xlink:href="#linearGradient3610"
       id="linearGradient4764"
       gradientUnits="userSpaceOnUse"
       gradientTransform="translate(-67,248)"
       x1="145"
       y1="362.85999"
       x2="365"
       y2="362.85999" />
    <linearGradient
       inkscape:collect="always"
       xlink:href="#linearGradient3944"
       id="linearGradient4766"
       gradientUnits="userSpaceOnUse"
       gradientTransform="translate(-296,250)"
       x1="487.20001"
       y1="708.71002"
       x2="487.20001"
       y2="651.42999" />
    <linearGradient
       inkscape:collect="always"
       xlink:href="#linearGradient3753"
       id="linearGradient4768"
       gradientUnits="userSpaceOnUse"
       gradientTransform="matrix(0.87204,0,0,0.83682,-32.08,667.47)"
       x1="145"
       y1="362.85999"
       x2="365"
       y2="362.85999" />
    <linearGradient
       inkscape:collect="always"
       xlink:href="#linearGradient3610-80"
       id="linearGradient4770"
       gradientUnits="userSpaceOnUse"
       gradientTransform="matrix(1.0108,0,0,0.99961,-69.547,619.89)"
       x1="145"
       y1="362.85999"
       x2="365"
       y2="362.85999" />
    <linearGradient
       inkscape:collect="always"
       xlink:href="#linearGradient3892"
       id="linearGradient4772"
       gradientUnits="userSpaceOnUse"
       gradientTransform="translate(-296,250)"
       x1="487.75"
       y1="451.91"
       x2="487.75"
       y2="531.66998" />
    <linearGradient
       inkscape:collect="always"
       xlink:href="#linearGradient4022"
       id="linearGradient4774"
       gradientUnits="userSpaceOnUse"
       gradientTransform="matrix(1.5431,0,0,1.0797,-557.8,201.57)"
       x1="364.87"
       y1="638.70001"
       x2="514.07001"
       y2="638.70001" />
    <linearGradient
       inkscape:collect="always"
       xlink:href="#linearGradient4216"
       id="linearGradient4776"
       gradientUnits="userSpaceOnUse"
       gradientTransform="translate(-296,250)"
       x1="549.39001"
       y1="511.95001"
       x2="535.46002"
       y2="497.81" />
    <linearGradient
       id="linearGradient3821-2-2-2-2-4-0-5-29-0-6">
      <stop
         id="stop3823-7-8-8-8-8-3-5-1-3-0"
         offset="0"
         style="stop-color:#2fbd84;stop-opacity:1;" />
      <stop
         id="stop3825-9-0-0-6-1-6-6-0-1-2"
         offset="1"
         style="stop-color:#268ad9;stop-opacity:1;" />
    </linearGradient>
    <linearGradient
       id="linearGradient4607">
      <stop
         id="stop4609"
         offset="0"
         style="stop-color:#2fbd84;stop-opacity:1;" />
      <stop
         id="stop4611"
         offset="1"
         style="stop-color:#268ad9;stop-opacity:1;" />
    </linearGradient>
    <linearGradient
       id="linearGradient3813-2-9-1-0-8-5-5-8-3-5-1-5">
      <stop
         id="stop3815-7-2-0-3-2-8-6-8-4-4-4-3"
         offset="0"
         style="stop-color:#6cc5e8;stop-opacity:1;" />
      <stop
         id="stop3817-7-6-9-7-6-5-5-2-5-55-6-3"
         offset="1"
         style="stop-color:#3ae0bf;stop-opacity:1;" />
    </linearGradient>
    <path
       style="fill:none;stroke:none"
       d="M -297.14286,681.54143 C -199.29045,717.70589 -78.340936,718.40442 -25,672.25572"
       id="path11754-7-6"
       inkscape:connector-curvature="0"
       transform="translate(1270.3118,240.42566)"
       sodipodi:nodetypes="cc" />
    <path
       style="fill:none;stroke:none"
       d="M -297.14286,681.54143 C -199.29045,717.70589 -78.340936,718.40442 -25,672.25572"
       id="path4618"
       inkscape:connector-curvature="0"
       transform="translate(1270.3118,240.42566)"
       sodipodi:nodetypes="cc" />
    <radialGradient
       r="531.76819"
       fy="540.27557"
       fx="341.41946"
       cy="540.27557"
       cx="341.41946"
       gradientTransform="matrix(0.38243958,0.45360802,-0.24828979,0.42591202,461.12596,386.27348)"
       gradientUnits="userSpaceOnUse"
       id="radialGradient4771"
       xlink:href="#linearGradient3979-1-2"
       inkscape:collect="always" />
    <linearGradient
       inkscape:collect="always"
       id="linearGradient3979-1-2">
      <stop
         style="stop-color:#0396f1;stop-opacity:1;"
         offset="0"
         id="stop3981-7-6" />
      <stop
         style="stop-color:#0058c2;stop-opacity:1"
         offset="1"
         id="stop3983-4-6" />
    </linearGradient>
    <radialGradient
       r="531.76819"
       fy="540.27557"
       fx="341.41946"
       cy="540.27557"
       cx="341.41946"
       gradientTransform="matrix(0.4933515,0.32206508,-0.32029671,0.30240071,101.47997,592.59026)"
       gradientUnits="userSpaceOnUse"
       id="radialGradient3077"
       xlink:href="#linearGradient3979-1-2"
       inkscape:collect="always" />
    <linearGradient
       y2="-755.51874"
       x2="-17.333632"
       y1="-975.18384"
       x1="20.343678"
       gradientTransform="matrix(0.44502751,-0.3067191,0.3067191,0.44502751,386.59919,851.15531)"
       gradientUnits="userSpaceOnUse"
       id="linearGradient7847-4-9"
       xlink:href="#linearGradient3979-0-0-5-8"
       inkscape:collect="always" />
    <linearGradient
       inkscape:collect="always"
       id="linearGradient3979-0-0-5-8">
      <stop
         style="stop-color:#0396f1;stop-opacity:1;"
         offset="0"
         id="stop3981-9-0-2" />
      <stop
         style="stop-color:#0058c2;stop-opacity:1"
         offset="1"
         id="stop3983-6-8-3" />
    </linearGradient>
    <clipPath
       clipPathUnits="userSpaceOnUse"
       id="clipPath16">
      <path
         inkscape:connector-curvature="0"
         d="M 0,853.33333 H 1365.3333 V 0 H 0 Z"
         id="path18"
         style="stroke-width:1.06666672" />
    </clipPath>
    <clipPath
       clipPathUnits="userSpaceOnUse"
       id="clipPath38">
      <path
         inkscape:connector-curvature="0"
         d="M 0,853.33333 H 1365.3333 V 0 H 0 Z"
         id="path40"
         style="stroke-width:1.06666672" />
    </clipPath>
    <clipPath
       clipPathUnits="userSpaceOnUse"
       id="clipPath56">
      <path
         inkscape:connector-curvature="0"
         d="M 0,853.33333 H 1365.3333 V 0 H 0 Z"
         id="path58"
         style="stroke-width:1.06666672" />
    </clipPath>
    <clipPath
       clipPathUnits="userSpaceOnUse"
       id="clipPath80">
      <path
         inkscape:connector-curvature="0"
         d="M 0,853.33333 H 1365.3333 V 0 H 0 Z"
         id="path82"
         style="stroke-width:1.06666672" />
    </clipPath>
    <clipPath
       clipPathUnits="userSpaceOnUse"
       id="clipPath100">
      <path
         inkscape:connector-curvature="0"
         d="M 0,853.33333 H 1365.3333 V 0 H 0 Z"
         id="path102"
         style="stroke-width:1.06666672" />
    </clipPath>
  </defs>
  <sodipodi:namedview
     id="base"
     pagecolor="#ffffff"
     bordercolor="#666666"
     borderopacity="1.0"
     inkscape:pageopacity="0.0"
     inkscape:pageshadow="2"
     inkscape:zoom="0.5506005"
     inkscape:cx="93.213783"
     inkscape:cy="294.39248"
     inkscape:document-units="px"
     inkscape:current-layer="layer1"
     showgrid="false"
     inkscape:window-width="1920"
     inkscape:window-height="1021"
     inkscape:window-x="0"
     inkscape:window-y="0"
     inkscape:window-maximized="1"
     borderlayer="true"
     inkscape:showpageshadow="false"
     showguides="true"
     inkscape:guide-bbox="true"
     inkscape:measure-start="0,0"
     inkscape:measure-end="0,0">
    <sodipodi:guide
       orientation="1,0"
       position="-84.931504,371.91779"
       id="guide4507"
       inkscape:locked="false" />
    <sodipodi:guide
       orientation="0,1"
       position="1813.2929,-325.46284"
       id="guide5743"
       inkscape:locked="false" />
  </sodipodi:namedview>
  <metadata
     id="metadata7">
    <rdf:RDF>
      <cc:Work
         rdf:about="">
        <dc:format>image/svg+xml</dc:format>
        <dc:type
           rdf:resource="http://purl.org/dc/dcmitype/StillImage" />
        <dc:title />
      </cc:Work>
    </rdf:RDF>
  </metadata>
  <g
     inkscape:label="Layer 1"
     inkscape:groupmode="layer"
     id="layer1"
     transform="translate(0,-622.5197)">
    <rect
       style="fill:#1a1a1a;fill-opacity:1;stroke:none;stroke-width:1.7320658"
       id="rect4291"
       width="1042.5914"
       height="567.69507"
       x="-23.614269"
       y="585.79291" />
    <text
       xml:space="preserve"
       style="font-style:normal;font-variant:normal;font-weight:normal;font-stretch:normal;font-size:12.80000019px;line-height:0%;font-family:'Linux Biolinum';-inkscape-font-specification:'Linux Biolinum';text-align:center;letter-spacing:0px;word-spacing:0px;text-anchor:middle;fill:#000000;fill-opacity:1;stroke:none;stroke-width:1.06666672"
       x="224.49211"
       y="1059.6061"
       id="text4544-4-6"><tspan
         sodipodi:role="line"
         x="228.34203"
         y="1059.6061"
         id="tspan3467-2-6"
         style="font-size:30.79926682px;line-height:1.25;stroke-width:1.06666672"> </tspan></text>
    <flowRoot
       xml:space="preserve"
       id="flowRoot3510"
       style="font-style:normal;font-variant:normal;font-weight:normal;font-stretch:normal;font-size:2.88370728px;line-height:0.01%;font-family:Comfortaa;-inkscape-font-specification:Comfortaa;text-align:center;letter-spacing:0px;word-spacing:0px;text-anchor:middle;fill:#000000;fill-opacity:1;stroke:none;stroke-width:0.24030896"
       transform="translate(0,68.509448)"><flowRegion
         id="flowRegion3512"
         style="stroke-width:0.24030896"><rect
           id="rect3514"
           width="262.94077"
           height="113.57066"
           x="-20.407255"
           y="984.16925"
           style="font-size:7.68988657px;stroke-width:0.05774839" /></flowRegion><flowPara
         id="flowPara3516"
         style="font-size:7.68988657px;line-height:1.25;stroke-width:0.24030896"> </flowPara></flowRoot>    <flowRoot
       xml:space="preserve"
       id="flowRoot3526"
       style="font-style:normal;font-variant:normal;font-weight:normal;font-stretch:normal;font-size:2.88370728px;line-height:0.01%;font-family:Comfortaa;-inkscape-font-specification:Comfortaa;text-align:center;letter-spacing:0px;word-spacing:0px;text-anchor:middle;fill:#000000;fill-opacity:1;stroke:none;stroke-width:0.24030896"
       transform="translate(0,75.307385)"><flowRegion
         id="flowRegion3528"
         style="stroke-width:0.24030896"><rect
           id="rect3530"
           width="62.957653"
           height="11.727406"
           x="62.301815"
           y="981.70038"
           style="stroke-width:0.05774839" /></flowRegion><flowPara
         id="flowPara3532"
         style="font-size:2.88370728px;line-height:1.25;stroke-width:0.24030896"> </flowPara></flowRoot>    <g
       id="g4353"
       transform="matrix(0.06094903,0,0,0.06094903,826.5431,1091.0663)">
      <path
         id="path6254"
         d="m 1938.2063,-1711.6262 c -19.5117,1.6329 -38.9268,2.6096 -58.0896,5.052 l 8.4583,1.1729 c 14.0825,-5.1501 34.6416,-2.8335 49.6313,-6.2249 z m -85.1521,8.9312 c -31.696,1.926 -75.7008,18.4517 -62.1209,3.4063 -51.7102,23.0845 -143.5616,55.4777 -195.1042,103.8103 l -1.6186,-10.8291 c -23.615,28.3463 -102.988,84.662 -109.3104,121.4104 l -6.3209,1.4646 c -12.2682,20.8097 -20.2373,44.3833 -29.9792,65.7792 -16.0643,27.3973 -23.5598,10.5512 -21.2708,14.85 -31.6124,64.0899 -47.3417,117.9355 -60.8938,162.1229 9.6581,14.4454 0.2364,86.9805 3.8792,145.0271 -15.855,286.72978 201.2304,565.09885 438.525,629.35623 34.7806,12.46347 86.4913,12.0176 130.4833,13.24576 -51.8916,-14.85002 -58.5912,-7.85781 -109.1708,-25.48533 -36.4693,-17.19488 -44.4519,-36.80469 -70.3,-59.23339 l 10.2292,18.07296 c -50.6635,-17.93461 -29.4632,-22.18997 -70.6918,-35.23957 l 10.9292,-14.25003 c -16.4272,-1.2561 -43.5049,-27.66261 -50.9021,-42.3313 l -17.9749,0.7104 c -21.5773,-26.60171 -33.0931,-45.82048 -32.2417,-60.71243 l -5.8063,10.35627 c -6.5736,-11.2911 -79.4284,-99.90326 -41.6333,-79.27499 -7.0202,-6.39232 -16.3562,-10.42432 -26.475,-28.83339 l 7.6896,-8.7792 c -18.1578,-23.40565 -33.4682,-53.3985 -32.2959,-63.39168 9.7001,13.09163 16.4266,15.54678 23.098,17.79382 -45.9321,-113.9439 -48.5126,-6.26635 -83.2792,-115.98123 l 7.3396,-0.58549 c -5.6246,-8.52758 -9.0717,-17.72534 -13.5938,-26.78326 l 3.2105,-31.89173 c -33.0499,-38.18592 -9.2393,-162.52892 -4.4521,-230.70822 3.2799,-27.7184 27.5933,-57.2364 46.0583,-103.5314 l -11.2499,-1.925 c 21.5214,-37.516 122.849,-150.7205 169.8,-144.9145 22.7356,-28.5558 -4.5228,-0.1116 -8.9751,-7.2855 49.9516,-51.6822 65.6525,-36.5115 99.3583,-45.8208 36.3297,-21.5634 -31.1935,8.4298 -13.9708,-8.2208 62.8478,-16.0364 44.523,-36.484 126.4917,-44.6209 8.6533,4.9129 -20.0567,7.5926 -27.2584,13.9709 52.3383,-25.6248 165.6553,-19.7766 239.2917,14.2083 85.3741,39.9306 181.3558,157.9095 185.1522,268.9084 l 4.3124,1.1583 c -2.1773,44.1316 6.7539,95.1703 -8.7521,142.0375 l 10.4834,-22.2041 c 1.2561,33.7198 -9.84,50.1046 -19.875,79.0791 l -18.048,8.975 c -14.7524,28.6674 1.4674,18.2001 -9.0979,40.9916 -23.0568,20.4748 -69.8687,64.04804 -84.8584,68.03961 -10.9561,-0.23722 7.41,-12.92448 9.8105,-17.87914 -30.8307,21.15861 -24.7438,31.76576 -71.9041,44.64789 l -1.3688,-3.08533 c -116.2607,54.71082 -277.7695,-53.69223 -275.648,-201.57923 -1.2282,9.3791 -3.5318,7.0359 -6.0999,10.8042 -6.0014,-76.0789 35.144,-152.4943 104.5375,-183.7438 67.8722,-33.5802 147.4412,-19.8166 196.0249,25.5292 -26.6854,-34.9759 -79.8467,-72.0605 -142.8061,-68.6271 -61.7033,1.0049 -119.4439,40.2093 -138.7043,82.7917 -31.5984,19.8885 -35.2822,76.7068 -49.0437,87.1187 -18.5487,136.219 34.849,195.04755 125.1917,264.28755 7.1805,4.84822 8.108,7.61622 7.525,10.11456 0.026,-0.0245 0.04,-0.0555 0.068,-0.0789 106.5746,39.79104 216.6385,30.11829 308.8375,-43.78336 23.4754,-18.28352 49.0993,-49.36465 56.5104,-49.78335 -11.1516,16.7762 1.9134,8.0667 -6.6562,22.87498 23.3359,-37.69748 -10.1762,-15.35148 24.1437,-65.09368 l 12.6729,17.4458 c -4.7452,-31.3192 38.8716,-69.311 34.4333,-118.8021 10.0072,-15.1291 11.1511,16.302 0.5438,51.1104 14.7245,-38.6186 3.8942,-44.8287 7.6625,-76.7062 4.0616,10.7189 9.4631,22.0934 12.2125,33.4125 -9.6022,-37.3346 9.8106,-62.8471 14.6396,-84.55 -4.7733,-2.0936 -14.8082,16.4966 -17.125,-27.5792 0.3489,-19.1488 5.3462,-10.0347 7.2583,-14.7521 -3.7405,-2.1633 -13.6083,-16.8468 -19.5958,-44.9979 4.3127,-6.6294 11.6115,17.1535 17.5291,18.1167 -3.8101,-22.373 -10.3562,-39.442 -10.6354,-56.6229 -17.3065,-36.1483 -6.1268,4.8282 -20.1395,-15.5209 -18.423,-57.4185 15.2693,-13.3286 17.5583,-39.4 27.8858,40.4051 43.783,103.071 51.1104,129.0167 -5.5827,-31.6402 -14.5858,-62.3021 -25.5979,-91.9605 8.4998,3.5869 -13.6619,-65.0818 11.0416,-19.6103 -26.3645,-96.9305 -112.7448,-187.5112 -192.2291,-229.9958 9.7,8.8905 21.9679,20.0558 17.5854,21.8145 -39.5537,-23.5174 -32.6021,-25.3732 -38.2687,-35.3104 -32.1706,-13.1055 -34.32,1.074 -55.6042,0.027 -60.7124,-32.2125 -72.4077,-28.7921 -128.2771,-48.9458 l 2.5395,11.8916 c -40.2097,-13.3986 -46.8543,5.0518 -90.302,0.027 -2.6378,-2.0516 13.9293,-7.48 27.5792,-9.4479 -38.8839,5.1361 -37.0682,-7.6775 -75.1146,1.4083 9.3651,-6.5736 19.3007,-10.9423 29.2938,-16.525 z m 26.325,782.32081 c -0.3283,0.31296 -0.4643,0.7296 -0.4042,1.2479 0.1613,-0.41355 0.3061,-0.82763 0.4042,-1.2479 z m -0.4042,1.2479 c -0.7734,1.98293 -2.0066,3.98688 -1.2312,6.96256 -30.0073,-14.04064 -57.4733,-35.25344 -80.0834,-61.2271 12.0029,17.54379 24.9408,34.59723 41.6751,47.99584 -28.3185,-9.56053 -66.1277,-68.57024 -77.1397,-70.97088 48.7793,87.34208 197.8813,153.17718 275.9979,120.50422 -36.1483,1.33984 -82.053,0.74112 -122.6396,-14.26251 -15.4906,-7.95403 -35.9536,-23.60821 -36.5791,-29.00213 z m 5.4541,-776.26871 c 11.1376,1.982 24.0626,3.5176 22.2063,6.1833 12.2263,-2.6937 14.9748,-5.1225 -22.2063,-6.1833 z m 22.2209,6.1833 -7.8312,1.6334 7.2999,-0.6709 z m -513.1396,247.0646 c -0.011,0.5764 0.043,1.0488 0.1187,1.475 -0.038,-0.491 -0.065,-0.9738 -0.1187,-1.475 z m 0.1187,1.475 c 2.2659,28.9555 -22.2558,39.9387 5.6042,20.4229 14.5086,-32.6642 -4.0249,-11.6431 -5.6042,-20.4229 z m -23.2312,94.0188 c -18.0462,23.0846 -8.3164,28.011 -10.2145,43.7124 6.5458,-20.056 7.7162,-32.0864 10.2145,-43.7124 z m 743.2292,139.45 c -2.5803,0.066 -5.8947,6.6138 -7.5626,13.7666 3.88,2.0377 6.9644,26.4918 10.7189,11.3626 1.27,-18.779 -0.576,-25.1956 -3.1563,-25.1292 z m 228.0583,63.2728 -3.0563,7.7043 c -5.6106,39.8887 -17.7678,79.3577 -36.3583,115.9666 20.5446,-38.6187 33.79,-80.8651 39.4146,-123.6709 z m -241.5521,14.0688 c -2.8053,13.8173 -10.2723,25.7497 -17.3624,38.3667 -38.9816,24.5501 -3.684,-14.5706 -0.027,-29.4625 -41.8984,52.7988 -5.7794,31.6538 -7.3147,46.4062 12.4635,-17.153 21.5081,-35.9104 24.7043,-55.3104 z m -85.0249,80.5437 c -16.9297,4.1452 -34.1806,4.2439 -51.5709,2.6667 -20.8515,0.2791 3.9223,10.7178 31.1521,14.9188 7.5507,-5.8898 14.3335,-11.8073 20.4188,-17.5855 z m -263.1855,2.723 c 4.6057,16.9018 14.0407,31.4307 22.7917,46.225 l -6.4333,-18.925 c -7.2576,-8.0392 -11.5294,-17.6977 -16.3584,-27.3 z m -16.0354,28.5541 -2.9458,14.6147 c 13.7195,18.63239 24.6058,38.81393 42.0937,53.32913 -12.5891,-24.55018 -21.9251,-34.69856 -39.1479,-67.94383 z"
         style="fill:#d70751;stroke-width:13.95686531"
         inkscape:connector-curvature="0" />
      <path
         id="path6278"
         d="m 1733.2354,-188.26165 c -42.0242,19.41397 -67.9139,22.62272 -95.7021,25.21866 25.2201,10.32811 25.2208,53.04992 25.2208,192.102083 V 188.14037 h -0.015 c 0,47.87211 -4e-4,75.01803 -7.7604,95.70208 26.5181,10.35606 59.484,16.16256 98.9541,16.16256 25.2201,0 98.2975,-8.5e-4 137.7396,-80.82506 18.758,-37.51606 25.2208,-87.96896 25.2208,-126.127043 0,-23.280107 -2.5955,-74.36256 -21.3396,-106.71456 -18.0881,-30.370134 -47.203,-45.904214 -78.2291,-45.904214 -62.0941,0 -80.1952,51.7382403 -89.8813,78.256214 0,-32.980054 0.6276,-148.095897 5.7917,-206.951997 z m -361.9438,1.2833 c -23.266,11.01195 -43.3364,18.12982 -87.3145,21.99584 17.46,18.75798 17.4604,28.45792 17.4604,113.804163 -12.268,-3.866026 -27.8007,-8.402133 -54.3188,-8.402133 -115.7583,0.01387 -134.5166,100.90816 -134.5166,175.95424 0,182.36032 97.0134,182.36043 111.2354,182.36043 40.0981,0 65.9743,-21.99552 76.9583,-60.13963 l 1.298,57.54379 c 12.296,-0.656 24.5787,-1.93963 44.6208,-1.93963 7.118,0 12.9225,3.2e-4 18.1145,0.65621 5.178,0 10.3425,0.62742 16.1626,1.28342 -10.3421,-20.68416 -18.1021,-67.24459 -18.1021,-168.16672 0,-98.298137 0,-264.4959 8.402,-314.94998 z m 1078.7959,122.904217 c -16.19,8.37408 -32.9788,16.78944 -85.3729,19.385386 7.0901,6.461974 13.5796,12.268694 16.7896,37.5166937 5.862,41.3681063 3.2785,215.9968033 1.9666,251.5729033 -1.284,36.20406 -3.88,41.38144 -8.402,51.7375 12.9101,-1.94006 23.2533,-2.56875 38.7874,-2.56875 19.4,0 32.9806,1.28469 43.9646,2.56875 -6.462,-22.65206 -6.4636,-30.38294 -7.0916,-113.17504 0,-95.70219 -1e-4,-120.294617 5.1499,-142.918723 4.536,-21.996054 16.8191,-49.1416537 53.6792,-49.1416537 37.544,0 40.7535,29.7409067 42.0375,40.7250137 1.9679,15.506026 1.9688,59.497706 1.9688,89.895783 v 69.84171 c 0,17.47392 -1.2975,67.28523 -3.2376,82.13536 -1.284,11.01195 -2.6109,14.25003 -5.1791,22.65205 12.296,-1.92597 20.6973,-3.23744 36.2313,-3.23744 26.4901,0 34.8937,1.9535 49.1437,3.23744 -9.0441,-18.75797 -9.044,-42.03936 -9.7,-64.03541 V 37.40704 c -0.656,-38.7861333 -1.2854,-97.643733 -82.1375,-97.643733 -64.6901,0 -80.8519,44.621653 -88.5979,64.6916263 z m -415.3563,0.626986 c -24.5641,11.640107 -39.4423,15.507414 -92.4645,20.68544 9.058,6.46208 14.8641,10.326827 18.102,34.9187203 4.5221,32.3381337 3.8814,186.2696567 1.2855,243.8417067 -1.9401,42.01013 -4.5233,47.84363 -10.9854,60.13963 14.8501,-1.92608 29.1146,-3.23755 49.7708,-3.23755 18.7579,0 27.8292,1.29749 40.7812,3.23755 -14.25,-26.51808 -13.593,-50.42496 -12.3229,-273.581337 0,-43.308053 0.6832,-57.573973 5.8333,-86.00416 z m -507.3729,3.225067 c -131.9203,0 -131.9208,146.198187 -131.9208,177.21035 0,131.27829 58.8416,183.01674 157.7958,183.01674 43.9502,0 65.3184,-6.43413 76.9584,-9.70005 -0.6419,-23.28 2.5816,-38.15797 6.4896,-58.2 -13.608,8.42997 -31.0667,19.41248 -69.8667,19.41248 -100.8942,0 -102.1938,-91.86368 -102.1938,-123.54581 h 172.0605 l 1.2562,-38.129177 c 0,-75.674133 -14.863,-150.064533 -110.5792,-150.064533 z m 674.3813,0.6416 c -64.0062,0 -101.5086,19.414613 -120.2666,29.114667 7.7739,14.235946 14.2355,26.4893863 20.0416,54.333333 25.2479,-21.9960533 58.2294,-33.6354133 91.8375,-33.6354133 53.706,0 53.7062,35.5758933 53.7062,86.0020263 -12.296,-0.628053 -22.6532,-1.912533 -40.1271,-1.912533 -82.1642,0.01387 -136.4833,31.65557 -136.4833,118.34176 0,40.75403 12.295,81.48011 48.5271,98.95413 16.1621,7.11798 32.3246,7.1167 37.5166,7.1167 59.512,0 79.5394,-43.99211 91.8354,-71.15211 -0.656,28.45803 -3e-4,45.90421 1.9397,68.55627 11.64,-0.656 23.2818,-1.93963 42.6958,-1.93963 10.984,0 21.3389,1.28363 32.3229,1.93963 -7.1179,-10.98411 -10.9842,-17.47371 -12.9521,-42.69376 -1.284,-24.56416 -1.2833,-49.14283 -1.2833,-83.42091 l 0.6562,-131.933333 c 0,-49.170027 -12.9524,-97.670827 -109.9666,-97.670827 z m -680.8438,41.39584 c 50.4541,0 54.307,55.60544 53.0229,101.537493 h -110.5812 c 0.656,-53.67808 11.6542,-101.537493 57.5583,-101.537493 z m -265.3625,4.522987 c 21.9961,0 34.2793,6.489493 43.9792,11.639573 l 0.6271,42.066667 c -0.628,0.656 -0.6271,104.759253 -1.925,131.933333 -1.284,21.96811 -3.2379,69.18539 -49.798,69.18539 -47.8581,0 -59.4991,-54.97728 -63.3791,-78.88544 -4.522,-26.51798 -4.5208,-48.5279 -4.5208,-58.2 0,-31.053977 1.9384,-117.739523 75.0166,-117.739523 z m 533.948,12.979093 c 49.1561,0 58.8562,67.901013 58.8562,118.32715 0,60.14016 -10.9839,140.99168 -86.002,140.99168 -10.3561,0 -23.2793,-1.96779 -31.6813,-3.89376 -1.2979,-23.28011 -1.2979,-63.37739 -1.2979,-109.9375 0,-55.632103 5.8041,-84.690237 10.3541,-98.954237 13.5661,-45.90410633 43.9649,-46.533333 49.7709,-46.533333 z m 424.527,113.77717 h 34.3042 c -1.284,40.75403 -1.9381,69.21131 -12.95,91.83542 -13.5801,29.11392 -36.2048,37.51658 -53.0229,37.51658 -38.842,0 -47.2167,-32.32416 -47.2167,-64.00618 0,-60.78219 54.3353,-65.34582 78.8854,-65.34582 z"
         style="fill:#ffffff;stroke-width:13.95686531"
         inkscape:connector-curvature="0" />
      <path
         id="path6290"
         d="m 2046.6786,-154.97521 -53.5664,53.53854 -53.5385,-53.53854 53.5385,-53.53853 53.5664,53.53853"
         i:knockout="Off"
         inkscape:connector-curvature="0"
         style="fill:#d70751;stroke-width:13.95686531" />
    </g>
    <text
       xml:space="preserve"
       style="font-style:normal;font-variant:normal;font-weight:normal;font-stretch:normal;font-size:66.11901855px;line-height:0%;font-family:LaudatioC;-inkscape-font-specification:'LaudatioC, Normal';text-align:start;letter-spacing:0px;word-spacing:0px;writing-mode:lr-tb;text-anchor:start;fill:#ffffff;fill-opacity:1;stroke:none;stroke-width:1.10198367"
       x="91.174736"
       y="727.55225"
       id="text2985-9"><tspan
         sodipodi:role="line"
         x="91.174736"
         y="727.55225"
         id="tspan2989-8"
         style="font-style:normal;font-variant:normal;font-weight:normal;font-stretch:normal;font-size:66.11901855px;line-height:125%;font-family:LaudatioC;-inkscape-font-specification:'LaudatioC, Normal';text-align:start;writing-mode:lr-tb;text-anchor:start;fill:#ffffff;stroke-width:1.10198367">MiniDebConf Curitiba 2018</tspan></text>
    <flowRoot
       xml:space="preserve"
       id="flowRoot1372"
       style="font-style:normal;font-variant:normal;font-weight:normal;font-stretch:normal;font-size:32px;line-height:50px;font-family:'Source Sans Pro';-inkscape-font-specification:'Source Sans Pro';text-align:center;letter-spacing:0px;word-spacing:0px;text-anchor:middle;fill:#ffffff;fill-opacity:1;stroke:none;stroke-width:1px;stroke-linecap:butt;stroke-linejoin:miter;stroke-opacity:1;"
       transform="translate(-6.9735089,673.20304)"><flowRegion
         id="flowRegion1374"
         style="font-style:normal;font-variant:normal;font-weight:normal;font-stretch:normal;font-size:32px;line-height:50px;font-family:'Source Sans Pro';-inkscape-font-specification:'Source Sans Pro';fill:#ffffff;fill-opacity:1;"><rect
           id="rect1376"
           width="964.09296"
           height="211.74484"
           x="25.977638"
           y="92.168282"
           style="font-style:normal;font-variant:normal;font-weight:normal;font-stretch:normal;font-size:32px;line-height:50px;font-family:'Source Sans Pro';-inkscape-font-specification:'Source Sans Pro';fill:#ffffff;fill-opacity:1;" /></flowRegion><flowPara
         id="flowPara1386">A 3ª edição do maior encontro brasileiro de usuários e desenvolvedores Debian já tem data e local para acontecer!</flowPara></flowRoot>    <flowRoot
       xml:space="preserve"
       id="flowRoot1372-5"
       style="font-style:normal;font-variant:normal;font-weight:normal;font-stretch:normal;font-size:18.98886299px;line-height:29.67009735px;font-family:'Source Sans Pro';-inkscape-font-specification:'Source Sans Pro';text-align:center;letter-spacing:0px;word-spacing:0px;text-anchor:middle;fill:#d70751;fill-opacity:1;stroke:none;stroke-width:1px;stroke-linecap:butt;stroke-linejoin:miter;stroke-opacity:1;"
       transform="matrix(1.6851984,0,0,1.6851984,-25.023449,729.33935)"><flowRegion
         id="flowRegion1374-4"
         style="font-style:normal;font-variant:normal;font-weight:normal;font-stretch:normal;font-size:18.98886299px;line-height:29.67009735px;font-family:'Source Sans Pro';-inkscape-font-specification:'Source Sans Pro';fill:#d70751;fill-opacity:1;"><rect
           id="rect1376-0"
           width="603.59583"
           height="141.26712"
           x="9.6318493"
           y="92.168282"
           style="font-style:normal;font-variant:normal;font-weight:normal;font-stretch:normal;font-size:18.98886299px;line-height:29.67009735px;font-family:'Source Sans Pro';-inkscape-font-specification:'Source Sans Pro';fill:#d70751;fill-opacity:1;" /></flowRegion><flowPara
         id="flowPara1386-8">11 a 14 de abril de 2018</flowPara><flowPara
         id="flowPara1425">UTFPR - Universidade Tecnológica Federal do Paraná</flowPara><flowPara
         id="flowPara1427" /></flowRoot>    <flowRoot
       xml:space="preserve"
       id="flowRoot1372-5-0"
       style="font-style:normal;font-variant:normal;font-weight:normal;font-stretch:normal;font-size:32px;line-height:50px;font-family:'Source Sans Pro';-inkscape-font-specification:'Source Sans Pro';text-align:center;letter-spacing:0px;word-spacing:0px;text-anchor:middle;fill:#d70751;fill-opacity:1;stroke:none;stroke-width:1px;stroke-linecap:butt;stroke-linejoin:miter;stroke-opacity:1"
       transform="translate(187.37009,917.8221)"><flowRegion
         id="flowRegion1374-4-1"
         style="font-style:normal;font-variant:normal;font-weight:normal;font-stretch:normal;font-size:32px;line-height:50px;font-family:'Source Sans Pro';-inkscape-font-specification:'Source Sans Pro';fill:#d70751;fill-opacity:1"><rect
           id="rect1376-0-5"
           width="603.59583"
           height="141.26712"
           x="9.6318493"
           y="92.168282"
           style="font-style:normal;font-variant:normal;font-weight:normal;font-stretch:normal;font-size:32px;line-height:50px;font-family:'Source Sans Pro';-inkscape-font-specification:'Source Sans Pro';fill:#d70751;fill-opacity:1" /></flowRegion><flowPara
         id="flowPara1386-8-2">Mais informações:</flowPara><flowPara
         id="flowPara1425-0">http://minidebconf.curitiba.br</flowPara><flowPara
         id="flowPara1427-7" /></flowRoot>  </g>
</svg>
